#,Team,GP,% Time,Poss / Game,Points,PPP,FGm,FGM,FGA,FG%,aFG%,%TO,%FT,%SF,%Score
1,Club Ciclista Olimpico,64,0.014,1.2,1.4,1.184,0.5,0.5,1.0,0.492,0.623,0.105,0.118,0.053,0.474
2,Club Echague de Parana,61,0.019,1.6,1.8,1.115,0.7,0.6,1.3,0.463,0.606,0.104,0.063,0.042,0.448
3,Club Estudiantes Concordia,59,0.046,3.9,4.1,1.057,2.1,1.3,3.5,0.387,0.527,0.044,0.079,0.057,0.41
4,La Union,56,0.02,1.7,1.7,1.032,0.8,0.6,1.4,0.443,0.544,0.106,0.085,0.053,0.426
5,Asociación Deportiva Atenas,56,0.013,1.1,1.2,1.016,0.4,0.4,0.8,0.468,0.553,0.156,0.141,0.125,0.453
6,Club de Regatas Corrientes,73,0.025,2.0,2.0,0.986,1.0,0.7,1.6,0.4,0.542,0.137,0.062,0.034,0.37
7,Hispano Americano Rio Gallegos,53,0.019,1.5,1.4,0.95,0.8,0.5,1.4,0.403,0.486,0.075,0.05,0.038,0.388
8,Peñarol Mar del Plata,55,0.028,2.2,2.1,0.935,1.1,0.7,1.8,0.404,0.49,0.122,0.106,0.089,0.398
9,Instituto Atletico Central Cordoba,59,0.034,2.8,2.6,0.923,1.3,0.9,2.3,0.418,0.522,0.149,0.065,0.042,0.381
10,Asociacion Atletica Quimsa,55,0.025,2.1,1.9,0.897,1.1,0.7,1.7,0.385,0.49,0.128,0.06,0.043,0.368
11,Club Deportivo Libertad,60,0.022,1.8,1.6,0.869,0.8,0.6,1.3,0.413,0.513,0.196,0.093,0.075,0.364
12,Weber Bahia,61,0.041,3.7,3.1,0.852,1.9,1.2,3.1,0.385,0.455,0.121,0.067,0.058,0.363
13,Boca Juniors,59,0.024,2.0,1.7,0.85,1.0,0.5,1.5,0.344,0.428,0.142,0.117,0.092,0.367
14,Club San Martin,62,0.018,1.4,1.2,0.843,0.6,0.4,1.1,0.403,0.44,0.124,0.135,0.101,0.416
15,Club Atletico Argentino,58,0.015,1.2,1.0,0.814,0.6,0.3,1.0,0.357,0.473,0.157,0.043,0.029,0.329
16,San Lorenzo de Almagro,66,0.023,1.9,1.6,0.811,0.9,0.6,1.5,0.381,0.469,0.189,0.055,0.047,0.339
17,Quilmes de Mar del Plata,64,0.02,1.7,1.3,0.796,1.0,0.4,1.4,0.299,0.408,0.12,0.083,0.037,0.315
18,Gimnasia y Esgrima Comodoro Rivadavia,59,0.033,2.6,2.1,0.787,1.3,0.7,2.0,0.339,0.445,0.161,0.077,0.052,0.329
19,Obras Basket,54,0.027,2.3,1.8,0.774,1.2,0.5,1.7,0.287,0.388,0.129,0.129,0.105,0.331
20,Ferrocarril Oeste,59,0.03,2.4,1.8,0.743,1.1,0.6,1.8,0.356,0.428,0.208,0.083,0.069,0.326
