#,Team,GP,% Time,Poss / Game,Points,PPP,FGm,FGM,FGA,FG%,aFG%,%TO,%FT,%SF,%Score
1,Asociación Deportiva Atenas,56,0.098,8.4,8.3,0.981,3.6,2.8,6.4,0.433,0.483,0.099,0.18,0.156,0.461
2,Club de Regatas Corrientes,73,0.061,5.0,4.7,0.95,2.3,1.6,3.9,0.41,0.475,0.102,0.135,0.099,0.433
3,Instituto Atletico Central Cordoba,59,0.045,3.8,3.4,0.906,1.7,1.3,3.0,0.423,0.469,0.121,0.116,0.103,0.424
4,Quilmes de Mar del Plata,64,0.082,7.0,6.2,0.894,3.4,1.9,5.2,0.358,0.409,0.101,0.184,0.155,0.409
5,Club Estudiantes Concordia,59,0.068,5.8,5.2,0.892,2.8,1.9,4.7,0.399,0.435,0.088,0.155,0.135,0.418
6,Club Echague de Parana,61,0.079,6.7,5.9,0.887,3.3,2.0,5.3,0.382,0.427,0.088,0.167,0.142,0.419
7,Club Atletico Argentino,58,0.058,4.8,4.2,0.874,2.3,1.5,3.8,0.387,0.439,0.105,0.13,0.108,0.401
8,Gimnasia y Esgrima Comodoro Rivadavia,59,0.058,4.6,4.0,0.868,2.2,1.4,3.6,0.377,0.42,0.11,0.158,0.132,0.399
9,La Union,56,0.028,2.3,2.0,0.846,1.1,0.7,1.8,0.382,0.441,0.115,0.123,0.108,0.392
10,Club San Martin,62,0.029,2.4,2.0,0.842,1.0,0.8,1.8,0.431,0.491,0.158,0.123,0.075,0.384
11,Obras Basket,54,0.045,3.9,3.2,0.829,1.7,1.1,2.8,0.392,0.402,0.138,0.162,0.124,0.41
12,Peñarol Mar del Plata,55,0.072,5.8,4.8,0.828,3.2,1.8,5.0,0.365,0.428,0.081,0.081,0.069,0.363
13,Club Ciclista Olimpico,64,0.046,3.8,3.1,0.803,1.7,1.2,2.9,0.4,0.443,0.152,0.102,0.074,0.377
14,Asociacion Atletica Quimsa,55,0.068,5.7,4.6,0.801,3.0,1.6,4.6,0.35,0.386,0.085,0.127,0.104,0.389
15,Hispano Americano Rio Gallegos,53,0.049,3.9,3.2,0.799,2.1,1.1,3.2,0.345,0.383,0.081,0.129,0.11,0.373
16,Club Deportivo Libertad,60,0.072,6.0,4.8,0.798,3.2,1.6,4.8,0.338,0.387,0.087,0.14,0.118,0.367
17,San Lorenzo de Almagro,66,0.035,2.9,2.3,0.788,1.5,0.8,2.3,0.342,0.381,0.074,0.132,0.095,0.37
18,Weber Bahia,61,0.049,4.4,3.3,0.761,2.2,1.1,3.3,0.343,0.392,0.142,0.119,0.09,0.354
19,Boca Juniors,59,0.036,3.1,2.1,0.689,1.8,0.7,2.5,0.293,0.327,0.098,0.115,0.104,0.317
20,Ferrocarril Oeste,59,0.038,3.1,2.1,0.683,1.7,0.8,2.5,0.324,0.334,0.12,0.115,0.093,0.344
