#,Team,GP,% Time,Poss / Game,Points,PPP,FGm,FGM,FGA,FG%,aFG%,%TO,%FT,%SF,%Score
1,Ferrocarril Oeste,59,0.049,3.9,5.1,1.293,1.0,2.2,3.2,0.677,0.68,0.099,0.142,0.116,0.638
2,Gimnasia y Esgrima Comodoro Rivadavia,59,0.046,3.7,4.8,1.292,1.1,1.8,2.9,0.637,0.646,0.078,0.224,0.201,0.635
3,La Union,56,0.046,3.7,4.8,1.278,1.2,2.1,3.3,0.639,0.645,0.033,0.153,0.124,0.636
4,San Lorenzo de Almagro,66,0.043,3.5,4.4,1.246,1.0,1.7,2.7,0.636,0.639,0.082,0.216,0.181,0.638
5,Hispano Americano Rio Gallegos,53,0.067,5.5,6.7,1.228,1.6,2.6,4.2,0.619,0.623,0.042,0.211,0.18,0.64
6,Asociacion Atletica Quimsa,55,0.055,4.7,5.7,1.223,1.5,2.4,3.9,0.621,0.626,0.047,0.16,0.133,0.617
7,Club Estudiantes Concordia,59,0.067,5.7,6.9,1.205,1.8,2.8,4.7,0.605,0.605,0.042,0.22,0.185,0.61
8,Club Echague de Parana,61,0.054,4.5,5.3,1.162,1.4,2.1,3.5,0.602,0.607,0.09,0.184,0.162,0.603
9,Peñarol Mar del Plata,55,0.047,3.8,4.4,1.153,1.3,1.8,3.1,0.577,0.586,0.067,0.167,0.129,0.584
10,Club de Regatas Corrientes,73,0.045,3.7,4.2,1.144,1.2,1.8,3.1,0.6,0.602,0.07,0.137,0.107,0.585
11,Obras Basket,54,0.057,4.9,5.6,1.144,1.6,2.2,3.8,0.578,0.583,0.076,0.179,0.156,0.589
12,Instituto Atletico Central Cordoba,59,0.047,4.0,4.5,1.141,1.2,1.8,3.1,0.594,0.597,0.077,0.197,0.175,0.594
13,Club Atletico Argentino,58,0.047,3.8,4.3,1.122,1.3,1.7,2.9,0.568,0.574,0.059,0.212,0.176,0.586
14,Club Ciclista Olimpico,64,0.061,5.0,5.6,1.109,1.6,2.3,3.9,0.582,0.588,0.078,0.193,0.168,0.567
15,Boca Juniors,59,0.051,4.4,4.8,1.105,1.5,1.9,3.5,0.559,0.559,0.074,0.163,0.14,0.568
16,Club San Martin,62,0.042,3.4,3.7,1.085,1.2,1.4,2.6,0.55,0.553,0.085,0.212,0.16,0.552
17,Club Deportivo Libertad,60,0.052,4.3,4.6,1.082,1.5,1.9,3.4,0.564,0.564,0.062,0.183,0.171,0.564
18,Weber Bahia,61,0.065,5.8,6.1,1.068,1.9,2.5,4.4,0.565,0.568,0.08,0.194,0.168,0.553
19,Asociación Deportiva Atenas,56,0.068,5.8,6.2,1.061,2.1,2.4,4.4,0.53,0.532,0.074,0.19,0.175,0.549
20,Quilmes de Mar del Plata,64,0.04,3.4,3.5,1.037,1.1,1.4,2.6,0.558,0.561,0.091,0.183,0.183,0.534
