#,Team,GP,% Time,Poss / Game,Points,PPP,FGm,FGM,FGA,FG%,aFG%,%TO,%FT,%SF,%Score
1,Club de Regatas Corrientes,73,0.047,3.9,4.3,1.117,1.8,1.5,3.3,0.45,0.595,0.096,0.057,0.032,0.433
2,Gimnasia y Esgrima Comodoro Rivadavia,59,0.08,6.4,6.8,1.069,3.3,2.4,5.7,0.425,0.551,0.071,0.063,0.048,0.415
3,Quilmes de Mar del Plata,64,0.083,7.0,7.4,1.055,3.8,2.5,6.3,0.398,0.541,0.064,0.055,0.042,0.401
4,Obras Basket,54,0.075,6.5,6.5,1.011,3.3,2.2,5.4,0.398,0.517,0.083,0.092,0.077,0.41
5,Club Estudiantes Concordia,59,0.039,3.3,3.3,1.0,1.7,1.1,2.8,0.395,0.524,0.092,0.066,0.056,0.393
6,San Lorenzo de Almagro,66,0.065,5.4,5.2,0.977,2.9,1.8,4.7,0.391,0.522,0.096,0.04,0.031,0.367
7,Club Echague de Parana,61,0.04,3.3,3.2,0.966,1.7,1.1,2.8,0.395,0.515,0.098,0.078,0.064,0.382
8,Asociación Deportiva Atenas,56,0.069,5.9,5.7,0.958,3.0,2.0,5.1,0.401,0.484,0.076,0.094,0.076,0.411
9,Club Ciclista Olimpico,64,0.097,8.0,7.5,0.938,4.3,2.9,7.2,0.404,0.491,0.074,0.043,0.029,0.392
10,Peñarol Mar del Plata,55,0.073,5.9,5.5,0.917,3.1,1.8,5.0,0.37,0.467,0.089,0.098,0.073,0.379
11,Instituto Atletico Central Cordoba,59,0.075,6.3,5.7,0.905,3.5,2.1,5.6,0.375,0.473,0.076,0.049,0.041,0.363
12,La Union,56,0.127,10.4,9.2,0.882,5.6,3.3,8.9,0.372,0.485,0.105,0.05,0.041,0.353
13,Club Deportivo Libertad,60,0.083,6.9,6.1,0.875,3.9,2.1,6.0,0.347,0.459,0.094,0.053,0.039,0.345
14,Weber Bahia,61,0.059,5.2,4.6,0.871,2.9,1.7,4.7,0.372,0.454,0.075,0.053,0.047,0.364
15,Hispano Americano Rio Gallegos,53,0.091,7.4,6.4,0.867,4.1,2.3,6.4,0.356,0.428,0.069,0.087,0.059,0.367
16,Club San Martin,62,0.062,5.1,4.3,0.845,3.0,1.6,4.5,0.346,0.436,0.079,0.047,0.041,0.344
17,Ferrocarril Oeste,59,0.074,6.0,4.9,0.822,3.2,1.8,5.0,0.36,0.448,0.116,0.051,0.04,0.343
18,Boca Juniors,59,0.062,5.3,4.3,0.808,3.1,1.5,4.6,0.328,0.429,0.089,0.035,0.026,0.323
19,Club Atletico Argentino,58,0.069,5.7,4.5,0.796,3.4,1.6,5.0,0.311,0.408,0.082,0.061,0.058,0.304
20,Asociacion Atletica Quimsa,55,0.051,4.3,2.8,0.661,2.6,1.0,3.6,0.285,0.355,0.102,0.055,0.055,0.275
