#,Team,GP,% Time,Poss / Game,Points,PPP,FGm,FGM,FGA,FG%,aFG%,%TO,%FT,%SF,%Score
1,Club de Regatas Corrientes,73,1,81.4,82.9,1.019,31.9,30.2,62.1,0.486,0.566,0.144,0.117,0.079,0.455
2,San Lorenzo de Almagro,66,1,82.2,82.8,1.007,32.2,30.3,62.5,0.485,0.562,0.154,0.112,0.084,0.449
3,Gimnasia y Esgrima Comodoro Rivadavia,59,1,80.4,78.6,0.978,32.6,28.1,60.7,0.463,0.537,0.147,0.127,0.094,0.439
4,Club San Martin,62,1,81.8,79.5,0.972,32.7,29.3,62.0,0.472,0.535,0.141,0.126,0.091,0.45
5,Asociacion Atletica Quimsa,55,1,84.5,81.1,0.96,35.0,29.9,64.9,0.461,0.524,0.136,0.12,0.094,0.442
6,Obras Basket,54,1,85.7,82.3,0.96,33.6,28.9,62.5,0.462,0.524,0.152,0.146,0.107,0.447
7,Instituto Atletico Central Cordoba,59,1,83.6,79.2,0.948,34.0,29.8,63.8,0.467,0.527,0.148,0.114,0.087,0.436
8,Ferrocarril Oeste,59,1,80.8,76.4,0.946,32.3,28.6,60.9,0.469,0.522,0.156,0.117,0.082,0.439
9,Asociación Deportiva Atenas,56,1,86.0,81.3,0.945,35.8,28.3,64.1,0.441,0.503,0.142,0.138,0.099,0.433
10,Club Deportivo Libertad,60,1,82.9,78.0,0.941,37.0,28.0,65.1,0.431,0.498,0.121,0.122,0.092,0.424
11,Quilmes de Mar del Plata,64,1,84.5,79.3,0.939,36.1,27.6,63.7,0.433,0.51,0.143,0.126,0.089,0.42
12,Club Ciclista Olimpico,64,1,82.6,77.4,0.937,34.7,28.8,63.5,0.453,0.517,0.144,0.112,0.076,0.427
13,Club Estudiantes Concordia,59,1,84.8,79.3,0.935,35.9,29.0,64.9,0.447,0.507,0.139,0.125,0.09,0.431
14,Hispano Americano Rio Gallegos,53,1,80.8,75.0,0.928,34.8,27.3,62.1,0.44,0.496,0.132,0.124,0.091,0.428
15,Boca Juniors,59,1,85.8,79.3,0.924,35.8,29.1,64.8,0.448,0.504,0.153,0.114,0.083,0.425
16,La Union,56,1,82.0,75.4,0.919,34.0,28.5,62.5,0.456,0.521,0.16,0.099,0.075,0.419
17,Club Echague de Parana,61,1,84.4,75.0,0.889,35.4,26.7,62.1,0.431,0.498,0.167,0.12,0.095,0.406
18,Club Atletico Argentino,58,1,82.1,72.3,0.881,36.2,26.4,62.7,0.422,0.478,0.14,0.121,0.095,0.409
19,Peñarol Mar del Plata,55,1,81.3,71.0,0.874,36.0,25.8,61.8,0.418,0.48,0.151,0.115,0.084,0.4
20,Weber Bahia,61,1,89.1,77.7,0.872,37.8,28.9,66.7,0.433,0.482,0.151,0.123,0.094,0.413
