#,Team,GP,% Time,Poss / Game,Points,PPP,FGm,FGM,FGA,FG%,aFG%,%TO,%FT,%SF,%Score
1,Boca Juniors,26,0.109,9.2,4.7,0.508,6.1,1.7,7.8,0.222,0.264,0.1,0.058,0.042,0.233
2,San Lorenzo de Almagro,17,0.135,11.9,6.5,0.547,8.4,2.5,10.8,0.228,0.266,0.054,0.039,0.034,0.241
3,Gimnasia y Esgrima Comodoro Rivadavia,23,0.099,8.6,5.7,0.67,4.9,2.0,6.9,0.285,0.342,0.127,0.096,0.066,0.299
4,Club Ciclista Olimpico,21,0.117,9.7,6.7,0.69,5.6,2.2,7.9,0.285,0.348,0.094,0.103,0.084,0.31
5,Instituto Atletico Central Cordoba,22,0.117,9.7,6.7,0.695,5.5,2.4,7.9,0.299,0.351,0.099,0.094,0.08,0.324
6,Club Estudiantes Concordia,27,0.133,10.8,7.7,0.711,6.1,3.0,9.1,0.325,0.372,0.089,0.076,0.048,0.326
7,Asociación Deportiva Atenas,22,0.106,8.9,6.4,0.719,5.0,2.5,7.4,0.331,0.38,0.112,0.066,0.051,0.332
8,Ferrocarril Oeste,20,0.105,8.4,6.1,0.726,5.0,2.2,7.1,0.303,0.349,0.083,0.089,0.077,0.327
9,Club Atletico Argentino,25,0.106,8.8,6.6,0.751,4.8,2.3,7.2,0.324,0.377,0.109,0.104,0.086,0.335
10,Obras Basket,24,0.136,11.8,9.0,0.761,6.7,3.3,10.0,0.331,0.374,0.077,0.092,0.07,0.359
11,Club Comunicaciones Corrientes,25,0.132,11.1,8.6,0.78,5.7,3.4,9.1,0.373,0.423,0.108,0.083,0.072,0.361
12,Club de Regatas Corrientes,25,0.164,13.6,10.8,0.789,7.8,4.1,11.9,0.343,0.401,0.079,0.062,0.05,0.346
13,Club San Martin,23,0.119,9.8,7.8,0.796,5.6,2.9,8.5,0.344,0.405,0.08,0.084,0.076,0.342
14,Asociacion Atletica Quimsa,21,0.147,12.3,9.9,0.802,6.2,3.6,9.8,0.366,0.432,0.136,0.085,0.062,0.36
15,Weber Bahia,25,0.113,10.7,8.7,0.816,6.0,3.3,9.3,0.353,0.42,0.079,0.06,0.056,0.356
16,La Union,25,0.127,10.8,9.2,0.849,5.5,3.6,9.1,0.395,0.458,0.114,0.055,0.048,0.373
17,Club Atletico Platense Florida,23,0.114,9.3,8.0,0.855,4.8,3.0,7.8,0.38,0.439,0.084,0.089,0.056,0.393
18,Peñarol Mar del Plata,21,0.098,8.1,7.1,0.871,4.0,2.7,6.8,0.401,0.458,0.111,0.094,0.07,0.386
19,Hispano Americano Rio Gallegos,26,0.103,8.5,7.5,0.874,4.5,2.7,7.2,0.369,0.449,0.081,0.09,0.068,0.378
20,Club Deportivo Libertad,25,0.102,8.3,7.4,0.894,4.4,2.8,7.1,0.388,0.452,0.072,0.087,0.053,0.394
