#,Team,GP,% Time,Poss / Game,Points,PPP,FGm,FGM,FGA,FG%,aFG%,%TO,%FT,%SF,%Score
1,San Lorenzo de Almagro,17,0.07,6.2,3.7,0.6,4.1,1.2,5.2,0.225,0.264,0.067,0.086,0.048,0.276
2,Club Estudiantes Concordia,27,0.045,3.6,2.4,0.653,2.0,0.8,2.8,0.276,0.309,0.112,0.143,0.082,0.306
3,Club San Martin,23,0.056,4.6,3.6,0.774,2.7,1.3,3.9,0.322,0.356,0.057,0.123,0.085,0.358
4,Asociación Deportiva Atenas,22,0.032,2.7,2.2,0.831,1.3,0.8,2.0,0.378,0.444,0.169,0.085,0.051,0.356
5,Instituto Atletico Central Cordoba,22,0.061,5.0,4.3,0.847,2.7,1.5,4.2,0.355,0.398,0.072,0.108,0.09,0.387
6,Gimnasia y Esgrima Comodoro Rivadavia,23,0.043,3.7,3.3,0.884,1.6,1.0,2.7,0.393,0.434,0.14,0.163,0.105,0.43
7,La Union,25,0.047,4.0,3.6,0.9,1.8,1.3,3.1,0.429,0.481,0.13,0.12,0.1,0.43
8,Ferrocarril Oeste,20,0.034,2.7,2.5,0.907,1.4,0.8,2.2,0.372,0.419,0.056,0.185,0.148,0.426
9,Club Atletico Argentino,25,0.046,3.8,3.6,0.927,1.6,1.2,2.8,0.435,0.486,0.135,0.156,0.094,0.458
10,Club de Regatas Corrientes,25,0.054,4.5,4.2,0.929,2.1,1.3,3.4,0.388,0.447,0.098,0.17,0.134,0.429
11,Club Ciclista Olimpico,21,0.047,3.9,3.7,0.951,2.0,1.1,3.1,0.364,0.424,0.037,0.173,0.111,0.444
12,Weber Bahia,25,0.053,5.0,4.8,0.952,2.6,1.6,4.2,0.387,0.439,0.032,0.143,0.095,0.452
13,Hispano Americano Rio Gallegos,26,0.043,3.6,3.5,0.978,1.6,1.1,2.7,0.408,0.486,0.108,0.151,0.086,0.441
14,Boca Juniors,26,0.037,3.2,3.2,1.0,1.5,1.2,2.7,0.449,0.507,0.061,0.11,0.073,0.463
15,Club Atletico Platense Florida,23,0.055,4.5,4.6,1.019,1.9,1.4,3.3,0.421,0.5,0.096,0.202,0.135,0.471
16,Club Comunicaciones Corrientes,25,0.036,3.0,3.2,1.039,1.4,1.1,2.4,0.443,0.508,0.053,0.184,0.158,0.5
17,Asociacion Atletica Quimsa,21,0.052,4.3,4.6,1.055,2.1,1.6,3.8,0.43,0.5,0.055,0.121,0.11,0.451
18,Obras Basket,24,0.038,3.3,3.7,1.1,1.4,1.3,2.6,0.476,0.548,0.088,0.163,0.15,0.488
19,Peñarol Mar del Plata,21,0.034,2.9,3.2,1.133,1.2,1.1,2.4,0.48,0.56,0.05,0.167,0.167,0.5
20,Club Deportivo Libertad,25,0.038,3.1,3.7,1.179,1.3,1.2,2.5,0.468,0.548,0.051,0.218,0.192,0.526
