#,Team,GP,% Time,Poss / Game,Points,PPP,FGm,FGM,FGA,FG%,aFG%,%TO,%FT,%SF,%Score
1,San Lorenzo de Almagro,17,0.74,21.9,19.2,0.879,15.5,6.4,21.9,0.293,0.44,0,0.0,0.0,0.293
2,Club Estudiantes Concordia,27,0.772,20.2,18.4,0.912,14.1,6.1,20.2,0.304,0.456,0,0.002,0.002,0.304
3,Boca Juniors,26,0.758,23.9,21.8,0.912,16.7,7.3,23.9,0.304,0.456,0,0.0,0.0,0.304
4,Club San Martin,23,0.805,22.0,20.3,0.923,15.2,6.7,22.0,0.307,0.46,0,0.002,0.002,0.307
5,Club Comunicaciones Corrientes,25,0.791,21.6,20.0,0.926,14.9,6.6,21.6,0.308,0.462,0,0.002,0.002,0.308
6,Club Ciclista Olimpico,21,0.737,20.0,19.0,0.95,13.7,6.3,20.0,0.317,0.475,0,0.002,0.002,0.317
7,Instituto Atletico Central Cordoba,22,0.724,22.5,21.7,0.964,15.3,7.2,22.5,0.321,0.482,0,0.0,0.0,0.321
8,Peñarol Mar del Plata,21,0.76,21.0,20.3,0.968,14.2,6.8,21.0,0.323,0.484,0,0.0,0.0,0.323
9,Ferrocarril Oeste,20,0.713,18.4,18.0,0.976,12.5,6.0,18.4,0.323,0.485,0,0.005,0.005,0.323
10,Hispano Americano Rio Gallegos,26,0.776,21.0,20.7,0.984,14.1,6.9,21.0,0.328,0.492,0,0.0,0.0,0.328
11,Weber Bahia,25,0.789,25.2,25.4,1.008,16.7,8.4,25.2,0.335,0.503,0,0.003,0.003,0.335
12,La Union,25,0.689,20.7,20.9,1.01,13.7,7.0,20.7,0.337,0.505,0,0.0,0.0,0.337
13,Club de Regatas Corrientes,25,0.801,25.5,26.0,1.02,16.8,8.6,25.5,0.339,0.509,0,0.003,0.003,0.339
14,Gimnasia y Esgrima Comodoro Rivadavia,23,0.68,19.3,19.8,1.025,12.7,6.6,19.3,0.342,0.512,0,0.002,0.002,0.342
15,Obras Basket,24,0.792,25.3,26.1,1.033,16.6,8.7,25.3,0.344,0.516,0,0.0,0.0,0.344
16,Asociacion Atletica Quimsa,21,0.788,21.6,22.4,1.037,14.1,7.5,21.6,0.346,0.519,0,0.0,0.0,0.346
17,Asociación Deportiva Atenas,22,0.816,24.4,25.4,1.039,16.0,8.5,24.4,0.346,0.52,0,0.002,0.002,0.346
18,Club Atletico Platense Florida,23,0.8,21.2,22.6,1.066,13.7,7.5,21.2,0.355,0.532,0,0.004,0.004,0.355
19,Club Atletico Argentino,25,0.758,21.6,23.3,1.078,13.9,7.8,21.6,0.359,0.538,0,0.002,0.002,0.359
20,Club Deportivo Libertad,25,0.764,19.6,21.1,1.08,12.5,7.0,19.6,0.36,0.54,0,0.0,0.0,0.36
