#,Team,GP,% Time,Poss / Game,Points,PPP,FGm,FGM,FGA,FG%,aFG%,%TO,%FT,%SF,%Score
1,Club Comunicaciones Corrientes,25,0.063,5.3,3.9,0.742,3.1,1.4,4.5,0.313,0.397,0.106,0.045,0.023,0.311
2,Peñarol Mar del Plata,21,0.067,5.6,4.4,0.795,3.2,1.6,4.8,0.327,0.426,0.103,0.043,0.026,0.316
3,Club de Regatas Corrientes,25,0.057,4.7,4.1,0.864,2.6,1.4,4.1,0.353,0.456,0.085,0.059,0.051,0.356
4,Hispano Americano Rio Gallegos,26,0.055,4.6,4.0,0.866,2.7,1.2,3.8,0.31,0.4,0.059,0.118,0.092,0.361
5,Club San Martin,23,0.073,6.0,5.3,0.877,3.0,1.7,4.7,0.358,0.463,0.13,0.101,0.087,0.362
6,Weber Bahia,25,0.048,4.5,4.0,0.884,2.3,1.4,3.7,0.37,0.495,0.152,0.054,0.054,0.33
7,Club Atletico Argentino,25,0.048,4.0,3.6,0.901,2.0,1.3,3.3,0.386,0.47,0.109,0.099,0.069,0.376
8,Asociación Deportiva Atenas,22,0.06,5.0,4.6,0.927,2.5,1.6,4.1,0.389,0.489,0.118,0.064,0.055,0.373
9,Asociacion Atletica Quimsa,21,0.058,4.9,4.5,0.931,2.5,1.4,3.9,0.366,0.518,0.127,0.069,0.039,0.353
10,Gimnasia y Esgrima Comodoro Rivadavia,23,0.065,5.6,5.3,0.946,2.7,1.9,4.6,0.415,0.524,0.109,0.07,0.047,0.403
11,Club Estudiantes Concordia,27,0.046,3.7,3.6,0.95,1.8,1.1,2.9,0.377,0.494,0.129,0.119,0.059,0.386
12,Club Ciclista Olimpico,21,0.061,5.0,4.8,0.953,2.9,1.4,4.3,0.333,0.417,0.028,0.151,0.113,0.396
13,Ferrocarril Oeste,20,0.055,4.4,4.2,0.955,2.6,1.4,3.9,0.346,0.449,0.034,0.091,0.068,0.386
14,Instituto Atletico Central Cordoba,22,0.055,4.5,4.6,1.02,2.4,1.5,4.0,0.391,0.517,0.07,0.07,0.04,0.39
15,La Union,25,0.062,5.3,5.4,1.023,2.8,1.9,4.7,0.402,0.517,0.068,0.06,0.038,0.406
16,Club Atletico Platense Florida,23,0.046,3.7,3.9,1.035,1.8,1.3,3.1,0.423,0.521,0.081,0.105,0.093,0.442
17,Boca Juniors,26,0.057,4.8,5.0,1.04,2.5,1.8,4.3,0.411,0.536,0.063,0.048,0.032,0.413
18,Obras Basket,24,0.065,5.6,6.0,1.074,2.9,2.0,5.0,0.412,0.538,0.052,0.081,0.052,0.43
19,Club Deportivo Libertad,25,0.072,5.9,6.7,1.135,2.9,2.4,5.3,0.447,0.557,0.054,0.101,0.095,0.453
20,San Lorenzo de Almagro,17,0.062,5.5,6.3,1.138,2.5,2.0,4.5,0.442,0.571,0.085,0.096,0.085,0.457
