,#,,Equipo,Prom,Pts,PJ,PG,PP,NP,TF,Prom,TC,Prom,Dif,PG,PP,PG,PP,EF,Des,Rec,U10
0,1,,Olímpico (La Banda),64.3%,92,56,36,20,0,4593,82.0,4361,77.9,+232,26,2,10,18,+8,0,-1,5-5
1,2,,La Unión (Formosa),55.4%,87,56,31,25,0,4504,80.4,4360,77.9,+144,18,10,13,15,+3,0,+1,5-5
2,3,,Quimsa (Santiago del Estero),55.4%,87,56,31,25,0,4502,80.4,4304,76.9,+198,22,6,9,19,+3,0,+2,5-5
3,4,,Libertad (Sunchales),55.4%,87,56,31,25,0,4565,81.5,4494,80.3,+71,23,5,8,20,+3,0,+2,5-5
4,5,,San Martín (Corrientes),50.0%,84,56,28,28,0,4777,85.3,4701,83.9,+76,20,8,8,20,0,0,-1,4-6
5,6,,Regatas (Corrientes),48.2%,83,56,27,29,0,4456,79.6,4419,78.9,+37,17,11,10,18,-1,0,+5,6-4
6,7,,Estudiantes (Concordia),48.2%,83,56,27,29,0,4199,75.0,4453,79.5,-254,18,10,9,19,-1,0,-1,4-6
7,8,,Atenas (Córdoba),46.4%,82,56,26,30,0,4326,77.3,4401,78.6,-75,18,10,8,20,-2,0,+1,7-3
8,9,,Instituto (Córdoba),41.1%,79,56,23,33,0,4260,76.1,4403,78.6,-143,16,12,7,21,-5,0,-3,1-9
9,10,,Sionista (Paraná),35.7%,76,56,20,36,0,4256,76.0,4535,81.0,-279,14,14,6,22,-8,0,-4,1-9
