#,Team,GP,% Time,Poss / Game,Points,PPP,FGm,FGM,FGA,FG%,aFG%,%TO,%FT,%SF,%Score
1,Club San Martin,62,0.318,17.0,18.7,1.095,8.1,9.0,17.0,0.526,0.526,0.0,0.074,0.074,0.526
2,San Lorenzo de Almagro,66,0.295,16.7,18.4,1.098,8.0,8.8,16.7,0.524,0.524,0.0,0.064,0.064,0.524
3,Club Estudiantes Concordia,59,0.305,16.8,18.8,1.117,7.7,9.1,16.8,0.539,0.539,0.0,0.06,0.06,0.539
4,Club Ciclista Olimpico,64,0.34,19.0,21.3,1.122,8.8,10.2,19.0,0.539,0.539,0.0,0.067,0.067,0.539
5,Peñarol Mar del Plata,55,0.319,16.6,19.0,1.145,7.5,9.1,16.6,0.549,0.549,0.0,0.074,0.074,0.549
6,Obras Basket,54,0.327,18.7,21.8,1.167,8.3,10.4,18.7,0.558,0.558,0.0,0.065,0.065,0.558
7,Weber Bahia,61,0.291,15.8,18.9,1.193,6.8,9.0,15.8,0.569,0.569,0.0,0.081,0.081,0.569
8,Boca Juniors,59,0.339,19.8,23.8,1.202,8.3,11.5,19.8,0.581,0.581,0.0,0.066,0.066,0.581
9,Asociacion Atletica Quimsa,55,0.349,19.1,23.0,1.203,8.1,11.0,19.1,0.575,0.575,0.0,0.072,0.072,0.575
10,Club Atletico Argentino,58,0.328,17.1,20.7,1.206,7.2,9.9,17.1,0.579,0.579,0.0,0.06,0.06,0.579
11,Gimnasia y Esgrima Comodoro Rivadavia,59,0.312,16.8,20.4,1.216,7.1,9.7,16.8,0.578,0.578,0.0,0.084,0.084,0.578
12,Instituto Atletico Central Cordoba,59,0.288,15.1,18.7,1.233,6.2,8.9,15.1,0.591,0.591,0.0,0.085,0.085,0.591
13,La Union,56,0.309,17.3,21.7,1.256,7.0,10.3,17.3,0.597,0.597,0.0,0.085,0.085,0.597
14,Quilmes de Mar del Plata,64,0.325,18.0,22.7,1.261,7.0,11.0,18.0,0.609,0.609,0.0,0.067,0.067,0.609
15,Asociación Deportiva Atenas,56,0.317,17.1,21.5,1.261,6.6,10.4,17.1,0.61,0.61,0.0,0.068,0.068,0.61
16,Club Echague de Parana,61,0.338,18.5,23.5,1.269,7.2,11.2,18.5,0.608,0.608,0.001,0.079,0.079,0.608
17,Ferrocarril Oeste,59,0.304,16.4,21.0,1.28,6.3,10.1,16.4,0.616,0.616,0.0,0.074,0.074,0.616
18,Club de Regatas Corrientes,73,0.316,17.5,22.7,1.294,6.6,10.9,17.5,0.623,0.623,0.0,0.073,0.073,0.623
19,Club Deportivo Libertad,60,0.314,16.2,21.1,1.303,6.1,10.1,16.2,0.624,0.624,0.0,0.074,0.074,0.624
20,Hispano Americano Rio Gallegos,53,0.299,14.8,19.5,1.315,5.6,9.3,14.8,0.625,0.625,0.0,0.098,0.098,0.625
