#,Team,GP,% Time,Poss / Game,Points,PPP,FGm,FGM,FGA,FG%,aFG%,%TO,%FT,%SF,%Score
1,San Lorenzo de Almagro,66,0.884,73.3,61.6,0.84,34.5,22.2,56.7,0.391,0.45,0.144,0.103,0.08,0.38
2,Club San Martin,62,0.859,71.1,60.7,0.853,31.5,22.1,53.6,0.412,0.481,0.166,0.102,0.079,0.384
3,Weber Bahia,61,0.871,75.0,64.7,0.863,31.5,22.9,54.4,0.421,0.487,0.181,0.118,0.083,0.393
4,Club Ciclista Olimpico,64,0.865,71.7,62.7,0.875,32.8,23.1,55.9,0.414,0.472,0.132,0.112,0.083,0.402
5,Peñarol Mar del Plata,55,0.868,70.8,62.7,0.886,30.1,21.9,52.0,0.42,0.48,0.154,0.134,0.092,0.412
6,Club Estudiantes Concordia,59,0.862,71.8,63.6,0.886,32.3,22.7,55.0,0.413,0.475,0.134,0.121,0.084,0.408
7,Asociacion Atletica Quimsa,55,0.842,71.5,64.7,0.904,30.9,23.9,54.8,0.436,0.498,0.146,0.112,0.085,0.412
8,Ferrocarril Oeste,59,0.873,70.5,63.9,0.906,30.2,23.8,54.0,0.441,0.512,0.158,0.099,0.076,0.406
9,Club Atletico Argentino,58,0.857,68.9,62.4,0.906,29.8,22.4,52.2,0.428,0.491,0.146,0.12,0.088,0.413
10,Quilmes de Mar del Plata,64,0.866,75.1,68.1,0.907,30.8,24.5,55.3,0.444,0.506,0.164,0.12,0.082,0.418
11,Obras Basket,54,0.864,74.3,67.4,0.908,33.1,24.0,57.1,0.421,0.481,0.131,0.125,0.09,0.415
12,La Union,56,0.865,72.2,66.0,0.914,31.7,24.1,55.9,0.432,0.498,0.142,0.112,0.082,0.412
13,Instituto Atletico Central Cordoba,59,0.855,70.8,65.3,0.922,29.6,23.0,52.6,0.437,0.51,0.157,0.123,0.085,0.416
14,Gimnasia y Esgrima Comodoro Rivadavia,59,0.864,71.0,65.5,0.924,30.1,23.7,53.7,0.441,0.503,0.143,0.126,0.094,0.425
15,Club Deportivo Libertad,60,0.839,68.0,63.1,0.928,28.9,22.6,51.5,0.44,0.51,0.145,0.123,0.09,0.421
16,Asociación Deportiva Atenas,56,0.829,69.5,64.9,0.934,29.7,24.1,53.8,0.448,0.513,0.137,0.113,0.083,0.428
17,Boca Juniors,59,0.877,76.0,71.4,0.94,32.5,25.8,58.3,0.443,0.504,0.133,0.122,0.094,0.432
18,Hispano Americano Rio Gallegos,53,0.857,67.6,64.3,0.951,27.5,22.2,49.7,0.447,0.519,0.151,0.142,0.099,0.433
19,Club de Regatas Corrientes,73,0.854,70.4,67.1,0.952,30.1,25.3,55.5,0.457,0.524,0.137,0.1,0.079,0.428
20,Club Echague de Parana,61,0.823,70.7,70.4,0.996,28.8,25.9,54.7,0.473,0.541,0.137,0.12,0.085,0.451
