#,Team,GP,% Time,Poss / Game,Points,PPP,FGm,FGM,FGA,FG%,aFG%,%TO,%FT,%SF,%Score
1,Club San Martin,62,0.02,1.7,1.1,0.68,1.0,0.4,1.3,0.277,0.373,0.155,0.049,0.049,0.262
2,San Lorenzo de Almagro,66,0.022,1.8,1.2,0.689,1.0,0.4,1.4,0.284,0.337,0.109,0.092,0.076,0.319
3,Asociación Deportiva Atenas,56,0.022,1.9,1.4,0.724,1.1,0.5,1.6,0.31,0.391,0.124,0.057,0.048,0.295
4,Ferrocarril Oeste,59,0.029,2.3,1.8,0.774,1.3,0.6,1.9,0.31,0.412,0.117,0.08,0.051,0.314
5,Quilmes de Mar del Plata,64,0.027,2.4,1.9,0.795,1.0,0.6,1.6,0.39,0.48,0.258,0.086,0.073,0.338
6,Club Ciclista Olimpico,64,0.023,1.9,1.7,0.87,0.9,0.5,1.5,0.372,0.468,0.146,0.106,0.065,0.374
7,Club Estudiantes Concordia,59,0.027,2.3,2.0,0.873,1.1,0.7,1.8,0.381,0.448,0.134,0.119,0.104,0.381
8,Instituto Atletico Central Cordoba,59,0.022,1.8,1.6,0.88,1.0,0.5,1.5,0.352,0.472,0.13,0.074,0.046,0.343
9,Peñarol Mar del Plata,55,0.031,2.5,2.2,0.885,1.3,0.8,2.1,0.383,0.496,0.137,0.043,0.036,0.353
10,Hispano Americano Rio Gallegos,53,0.031,2.5,2.2,0.893,1.1,0.7,1.9,0.394,0.51,0.176,0.084,0.023,0.366
11,Weber Bahia,61,0.025,2.2,2.0,0.902,1.1,0.6,1.7,0.368,0.472,0.121,0.083,0.038,0.371
12,La Union,56,0.025,2.1,1.9,0.94,1.0,0.6,1.7,0.387,0.522,0.138,0.069,0.052,0.371
13,Club Atletico Argentino,58,0.027,2.2,2.1,0.961,0.9,0.7,1.7,0.433,0.541,0.173,0.102,0.063,0.394
14,Gimnasia y Esgrima Comodoro Rivadavia,59,0.025,2.1,2.0,0.975,0.9,0.7,1.7,0.439,0.52,0.132,0.091,0.066,0.413
15,Boca Juniors,59,0.026,2.2,2.2,0.977,1.1,0.8,1.9,0.416,0.522,0.098,0.061,0.045,0.402
16,Club de Regatas Corrientes,73,0.024,2.0,2.0,0.986,1.0,0.7,1.7,0.415,0.516,0.09,0.069,0.055,0.414
17,Club Deportivo Libertad,60,0.019,1.6,1.6,1.0,0.8,0.5,1.3,0.405,0.519,0.085,0.085,0.064,0.404
18,Obras Basket,54,0.029,2.5,2.7,1.074,1.2,0.9,2.1,0.417,0.539,0.044,0.119,0.089,0.452
19,Club Echague de Parana,61,0.019,1.7,1.8,1.079,0.7,0.7,1.3,0.5,0.575,0.099,0.129,0.119,0.495
20,Asociacion Atletica Quimsa,55,0.023,1.9,2.2,1.132,0.8,0.8,1.6,0.489,0.633,0.132,0.047,0.047,0.434
