#,Team,GP,% Time,Poss / Game,Points,PPP,FGm,FGM,FGA,FG%,aFG%,%TO,%FT,%SF,%Score
1,Club Deportivo Libertad,60,0.144,4.0,2.3,0.571,2.8,1.1,4.0,0.286,0.286,0,0.0,0.0,0.286
2,San Lorenzo de Almagro,66,0.168,5.2,3.2,0.622,3.6,1.6,5.2,0.311,0.311,0,0.0,0.0,0.311
3,Club Atletico Argentino,58,0.164,4.3,2.8,0.651,2.9,1.4,4.3,0.325,0.325,0,0.0,0.0,0.325
4,Ferrocarril Oeste,59,0.164,4.9,3.3,0.667,3.3,1.6,4.9,0.333,0.333,0,0.0,0.0,0.333
5,Hispano Americano Rio Gallegos,53,0.162,4.6,3.1,0.669,3.1,1.5,4.6,0.331,0.331,0,0.008,0.008,0.331
6,Club Ciclista Olimpico,64,0.164,4.7,3.2,0.684,3.1,1.6,4.7,0.342,0.342,0,0.0,0.0,0.342
7,Peñarol Mar del Plata,55,0.182,5.1,3.5,0.695,3.3,1.7,5.1,0.344,0.344,0,0.007,0.007,0.344
8,Weber Bahia,61,0.178,5.6,3.9,0.708,3.6,2.0,5.6,0.351,0.351,0,0.006,0.006,0.351
9,Gimnasia y Esgrima Comodoro Rivadavia,59,0.192,5.3,3.7,0.71,3.4,1.9,5.3,0.355,0.355,0,0.0,0.0,0.355
10,Club de Regatas Corrientes,73,0.133,3.9,2.8,0.728,2.5,1.4,3.9,0.364,0.364,0,0.0,0.0,0.364
11,Club Echague de Parana,61,0.163,4.5,3.3,0.738,2.9,1.7,4.5,0.367,0.367,0,0.004,0.004,0.367
12,Asociacion Atletica Quimsa,55,0.156,4.3,3.2,0.75,2.7,1.6,4.3,0.373,0.373,0,0.004,0.004,0.373
13,Club Estudiantes Concordia,59,0.172,5.2,4.0,0.762,3.2,2.0,5.2,0.381,0.381,0,0.0,0.0,0.381
14,La Union,56,0.171,5.3,4.0,0.765,3.3,2.0,5.3,0.381,0.381,0,0.007,0.007,0.381
15,Quilmes de Mar del Plata,64,0.162,4.8,4.0,0.843,2.8,2.0,4.8,0.42,0.42,0,0.003,0.003,0.42
16,Instituto Atletico Central Cordoba,59,0.131,3.8,3.2,0.844,2.2,1.6,3.8,0.422,0.422,0,0.0,0.0,0.422
17,Asociación Deportiva Atenas,56,0.144,4.1,3.5,0.855,2.3,1.7,4.1,0.425,0.425,0,0.004,0.004,0.425
18,Club San Martin,62,0.146,4.3,3.7,0.857,2.5,1.8,4.3,0.426,0.426,0,0.004,0.004,0.426
19,Obras Basket,54,0.167,5.0,4.4,0.871,2.8,2.2,5.0,0.435,0.435,0,0.0,0.0,0.435
20,Boca Juniors,59,0.174,5.2,4.9,0.945,2.8,2.4,5.2,0.469,0.469,0,0.01,0.01,0.469
