#,Team,GP,% Time,Poss / Game,Points,PPP,FGm,FGM,FGA,FG%,aFG%,%TO,%FT,%SF,%Score
1,San Lorenzo de Almagro,66,1,83.0,71.8,0.865,38.0,26.0,64.0,0.406,0.465,0.144,0.105,0.081,0.393
2,Club San Martin,62,1,82.9,73.6,0.888,35.4,26.9,62.2,0.432,0.5,0.164,0.107,0.083,0.402
3,Weber Bahia,61,1,86.2,77.1,0.895,34.9,27.5,62.4,0.44,0.505,0.179,0.122,0.085,0.41
4,Club Estudiantes Concordia,59,1,83.3,75.4,0.905,36.6,27.1,63.6,0.426,0.487,0.136,0.122,0.085,0.416
5,Club Ciclista Olimpico,64,1,82.9,75.0,0.905,36.2,27.6,63.8,0.433,0.493,0.138,0.118,0.087,0.416
6,Peñarol Mar del Plata,55,1,81.5,73.8,0.906,33.7,25.7,59.4,0.432,0.491,0.155,0.141,0.099,0.422
7,Quilmes de Mar del Plata,64,1,86.7,80.5,0.929,34.6,29.3,63.9,0.458,0.518,0.163,0.123,0.087,0.431
8,Club Atletico Argentino,58,1,80.5,74.8,0.929,33.2,27.1,60.3,0.449,0.511,0.152,0.123,0.091,0.426
9,Asociacion Atletica Quimsa,55,1,84.9,79.1,0.932,35.5,29.4,64.9,0.453,0.514,0.145,0.115,0.088,0.427
10,Ferrocarril Oeste,59,1,80.7,75.8,0.939,33.0,28.4,61.5,0.463,0.532,0.157,0.104,0.079,0.425
11,Obras Basket,54,1,85.9,80.9,0.941,37.3,29.1,66.4,0.438,0.499,0.127,0.128,0.093,0.431
12,Club Deportivo Libertad,60,1,81.1,76.6,0.945,33.5,27.7,61.1,0.453,0.521,0.146,0.125,0.092,0.431
13,La Union,56,1,83.5,79.8,0.955,35.3,29.4,64.7,0.455,0.521,0.14,0.115,0.084,0.431
14,Boca Juniors,59,1,86.7,83.3,0.961,36.2,30.0,66.2,0.453,0.514,0.132,0.129,0.099,0.443
15,Gimnasia y Esgrima Comodoro Rivadavia,59,1,82.2,79.5,0.967,33.3,29.0,62.4,0.465,0.527,0.14,0.131,0.098,0.447
16,Instituto Atletico Central Cordoba,59,1,82.7,80.1,0.968,33.1,28.3,61.4,0.461,0.535,0.153,0.129,0.089,0.438
17,Asociación Deportiva Atenas,56,1,83.9,82.1,0.979,34.2,30.8,65.0,0.474,0.537,0.133,0.118,0.089,0.451
18,Club de Regatas Corrientes,73,1,82.5,81.1,0.983,34.0,30.8,64.8,0.475,0.542,0.136,0.104,0.081,0.444
19,Hispano Americano Rio Gallegos,53,1,78.8,77.8,0.987,30.9,27.3,58.3,0.469,0.54,0.146,0.145,0.104,0.451
20,Club Echague de Parana,61,1,85.9,88.1,1.026,33.6,32.7,66.2,0.493,0.559,0.136,0.123,0.09,0.468
