,#,Equipo,Prom,Pts,PJ,PG,PP,NP,TF,Prom,TC,Prom,Dif,PG,PP,PG,PP,EF,Des,Rec,U10
0,1,Quimsa (Santiago del Estero),85.7%,39,21,18,3,0,1893,90.1,1751,83.4,142,12,0,6,3,6,0,4,9-1
1,2,San Lorenzo (Almagro),81.0%,38,21,17,4,0,1838,87.5,1690,80.5,148,10,1,7,3,6,0,1,9-1
2,3,Gimnasia y Esgrima (C. Rivadavia),76.0%,44,25,19,6,0,2182,87.3,1996,79.8,186,12,1,7,5,6,0,4,9-1
3,4,Instituto (Córdoba),68.2%,37,22,15,7,0,1784,81.1,1660,75.5,124,8,1,7,6,6,0,-1,7-3
4,5,Comunicaciones (Corrientes),61.5%,42,26,16,10,0,2236,86,2035,78.3,201,10,3,6,7,3,0,1,6-4
5,6,Ferro Carril Oeste,58.3%,38,24,14,10,0,1904,79.3,1826,76.1,78,8,5,6,5,1,0,-1,5-5
6,7,San Martín (Corrientes),56.5%,36,23,13,10,0,1905,82.8,1829,79.5,76,8,3,5,7,2,0,-1,5-5
7,8,Regatas (Corrientes),52.0%,38,25,13,12,0,2098,83.9,2045,81.8,53,9,3,4,9,1,0,-3,6-4
8,9,Olímpico (La Banda),50.0%,36,24,12,12,0,1990,82.9,1944,81,46,8,3,4,9,1,0,1,6-4
9,10,Boca Juniors,50.0%,39,26,13,13,0,2026,77.9,2022,77.8,4,9,4,4,9,0,0,1,5-5
10,11,Bahía Basket (Bahía Blanca),46.2%,38,26,12,14,0,2362,90.8,2477,95.3,-115,10,3,2,11,-1,0,-1,4-6
11,12,Hispano Americano,44.4%,39,27,12,15,0,2278,84.4,2269,84,9,9,6,3,9,-3,0,-1,6-4
12,13,Argentino (Junín),42.3%,37,26,11,15,0,2013,77.4,2166,83.3,-153,8,4,3,11,-1,0,1,4-6
13,14,Obras Sanitarias,42.3%,37,26,11,15,0,2191,84.3,2163,83.2,28,6,6,5,9,-1,0,-1,4-6
14,15,Peñarol (Mar del Plata),40.7%,38,27,11,16,0,2248,83.3,2273,84.2,-25,9,4,2,12,-2,0,1,2-8
15,16,Atenas (Córdoba),40.0%,35,25,10,15,0,2011,80.4,2076,83,-65,6,4,4,11,0,0,1,4-6
16,17,La Unión (Formosa),40.0%,35,25,10,15,0,2066,82.6,2119,84.8,-53,8,5,2,10,-3,0,2,4-6
17,18,Platense,33.3%,32,24,8,16,0,1818,75.8,1979,82.5,-161,6,7,2,9,-5,0,-1,2-8
18,19,Estudiantes (Concordia),25.9%,34,27,7,20,0,1888,69.9,2086,77.3,-198,7,8,0,12,-8,0,-1,2-8
19,20,Libertad (Sunchales),23.1%,32,26,6,20,0,1847,71,2172,83.5,-325,5,9,1,11,-8,0,1,2-8
