#,Team,GP,% Time,Poss / Game,Points,PPP,FGm,FGM,FGA,FG%,aFG%,%TO,%FT,%SF,%Score
1,Asociacion Atletica Quimsa,21,0.081,6.8,7.2,1.063,2.4,2.9,5.2,0.545,0.545,0.091,0.175,0.119,0.552
2,Boca Juniors,26,0.113,9.2,9.3,1.017,2.8,3.5,6.3,0.549,0.549,0.159,0.205,0.134,0.51
3,Weber Bahia,25,0.009,0.8,0.8,1.0,0.2,0.3,0.5,0.615,0.615,0.15,0.2,0.1,0.55
4,Gimnasia y Esgrima Comodoro Rivadavia,23,0.096,8.0,7.9,0.984,2.9,3.0,5.9,0.511,0.511,0.114,0.212,0.152,0.5
5,Club de Regatas Corrientes,25,0.083,7.0,6.8,0.977,2.1,2.2,4.3,0.514,0.514,0.155,0.299,0.207,0.529
6,Club Ciclista Olimpico,21,0.1,8.2,8.0,0.965,2.4,3.0,5.4,0.549,0.549,0.168,0.249,0.185,0.503
7,Club Atletico Platense Florida,23,0.053,4.4,4.3,0.961,1.6,1.6,3.2,0.5,0.5,0.127,0.157,0.069,0.51
8,Ferrocarril Oeste,20,0.089,7.3,6.8,0.932,2.1,2.5,4.5,0.544,0.544,0.205,0.205,0.123,0.479
9,Peñarol Mar del Plata,21,0.061,5.0,4.5,0.904,1.9,1.8,3.7,0.481,0.481,0.144,0.163,0.144,0.471
10,Instituto Atletico Central Cordoba,22,0.051,4.1,3.7,0.901,1.6,1.5,3.1,0.478,0.478,0.154,0.121,0.099,0.451
11,Obras Basket,24,0.075,6.4,5.7,0.895,2.5,2.4,4.9,0.496,0.496,0.144,0.144,0.105,0.458
12,San Lorenzo de Almagro,17,0.076,6.7,6.0,0.895,2.0,2.0,4.0,0.5,0.5,0.211,0.254,0.167,0.456
13,La Union,25,0.062,5.3,4.6,0.879,2.1,2.0,4.0,0.485,0.485,0.136,0.114,0.076,0.462
14,Club San Martin,23,0.056,4.7,4.0,0.852,1.7,1.5,3.1,0.472,0.472,0.185,0.157,0.093,0.454
15,Club Estudiantes Concordia,27,0.085,6.9,5.8,0.849,3.0,2.3,5.3,0.431,0.431,0.13,0.13,0.097,0.422
16,Hispano Americano Rio Gallegos,26,0.091,7.8,6.5,0.824,3.3,2.7,6.1,0.449,0.449,0.118,0.127,0.074,0.436
17,Club Atletico Argentino,25,0.133,10.7,8.7,0.813,4.7,3.0,7.7,0.391,0.391,0.12,0.191,0.139,0.427
18,Club Deportivo Libertad,25,0.099,8.0,6.3,0.785,3.6,2.3,5.9,0.388,0.388,0.135,0.18,0.13,0.4
19,Asociación Deportiva Atenas,22,0.054,4.7,3.5,0.757,2.1,1.3,3.4,0.387,0.387,0.146,0.155,0.087,0.379
20,Club Comunicaciones Corrientes,25,0.065,5.8,4.2,0.712,3.0,1.5,4.5,0.336,0.336,0.123,0.164,0.13,0.356
