#,Team,GP,% Time,Poss / Game,Points,PPP,FGm,FGM,FGA,FG%,aFG%,%TO,%FT,%SF,%Score
1,Club de Regatas Corrientes,57,0.072,5.8,4.8,0.836,3.3,1.8,5.1,0.355,0.43,0.058,0.055,0.024,0.356
2,Club Atletico Argentino,57,0.094,7.6,6.3,0.833,4.1,2.3,6.4,0.361,0.415,0.083,0.1,0.083,0.377
3,Gimnasia y Esgrima Comodoro Rivadavia,57,0.093,7.2,6.0,0.833,4.0,2.2,6.2,0.359,0.425,0.083,0.07,0.041,0.364
4,Club Atlético Lanús,57,0.097,7.8,6.4,0.82,4.1,2.4,6.5,0.367,0.439,0.104,0.068,0.047,0.36
5,Obras Basket,59,0.079,6.7,5.3,0.789,3.6,2.0,5.5,0.358,0.39,0.086,0.099,0.079,0.378
6,Asociación Deportiva Atenas,55,0.095,7.5,5.7,0.763,4.2,2.1,6.3,0.339,0.389,0.09,0.08,0.058,0.346
7,Boca Juniors,52,0.111,8.8,6.7,0.757,4.9,2.7,7.6,0.349,0.395,0.091,0.061,0.046,0.348
8,La Union,60,0.074,6.0,4.5,0.749,3.5,1.8,5.3,0.332,0.388,0.094,0.05,0.039,0.323
9,Club San Martin,49,0.065,5.6,4.2,0.742,3.1,1.7,4.7,0.349,0.379,0.105,0.073,0.055,0.345
10,Asociacion Atletica Quimsa,52,0.097,7.6,5.5,0.72,4.5,2.1,6.6,0.316,0.373,0.088,0.058,0.043,0.318
11,Ferrocarril Oeste,55,0.103,8.3,5.8,0.699,5.0,2.2,7.2,0.308,0.35,0.085,0.076,0.065,0.316
12,San Lorenzo de Almagro,69,0.068,5.7,3.9,0.693,3.4,1.5,4.8,0.303,0.356,0.095,0.061,0.036,0.307
13,Club Deportivo Libertad,64,0.086,7.1,4.8,0.679,4.1,1.8,5.9,0.301,0.344,0.106,0.073,0.049,0.305
14,Quilmes de Mar del Plata,52,0.076,6.3,4.3,0.676,3.8,1.5,5.4,0.283,0.337,0.089,0.076,0.052,0.3
15,Club Ciclista Olimpico,59,0.072,6.0,3.9,0.651,3.6,1.5,5.0,0.29,0.328,0.096,0.076,0.048,0.299
16,Centro Juventud Sionista,55,0.108,8.9,5.7,0.645,5.7,2.2,7.9,0.277,0.331,0.074,0.047,0.035,0.275
17,Weber Bahia,68,0.102,8.5,5.4,0.629,5.3,2.0,7.3,0.278,0.323,0.097,0.059,0.045,0.284
18,Club Estudiantes Concordia,45,0.084,7.1,4.2,0.591,4.5,1.6,6.1,0.259,0.307,0.097,0.05,0.031,0.266
19,Instituto Atletico Central Cordoba,47,0.076,5.9,3.4,0.58,3.5,1.3,4.9,0.275,0.314,0.127,0.054,0.04,0.264
20,Peñarol Mar del Plata,57,0.053,4.4,2.3,0.524,2.9,0.8,3.7,0.216,0.261,0.077,0.069,0.056,0.242
