#,Team,GP,% Time,Poss / Game,Points,PPP,FGm,FGM,FGA,FG%,aFG%,%TO,%FT,%SF,%Score
1,Gimnasia y Esgrima Comodoro Rivadavia,57,0.097,7.6,9.7,1.273,2.1,4.0,6.1,0.655,0.655,0.081,0.162,0.15,0.637
2,Club Atletico Argentino,57,0.08,6.4,8.2,1.27,1.7,3.3,5.0,0.66,0.66,0.082,0.194,0.183,0.642
3,Quilmes de Mar del Plata,52,0.063,5.2,6.4,1.237,1.6,2.7,4.3,0.624,0.624,0.044,0.185,0.178,0.626
4,Club de Regatas Corrientes,57,0.097,7.7,9.5,1.222,2.0,4.0,6.1,0.664,0.664,0.084,0.181,0.163,0.628
5,Obras Basket,59,0.114,9.7,11.7,1.212,2.8,4.6,7.4,0.622,0.622,0.084,0.211,0.196,0.614
6,Asociación Deportiva Atenas,55,0.094,7.5,8.8,1.182,2.4,3.6,6.0,0.598,0.598,0.071,0.185,0.168,0.599
7,Ferrocarril Oeste,55,0.113,9.1,10.6,1.166,2.9,4.3,7.2,0.602,0.602,0.096,0.18,0.164,0.588
8,Club Atlético Lanús,57,0.076,6.1,7.1,1.165,1.7,2.7,4.5,0.61,0.61,0.116,0.223,0.197,0.588
9,Weber Bahia,68,0.091,7.6,8.8,1.162,2.2,3.8,6.0,0.63,0.63,0.099,0.164,0.149,0.59
10,Club San Martin,49,0.112,9.7,11.2,1.161,3.1,4.9,8.0,0.613,0.613,0.085,0.133,0.125,0.586
11,Asociacion Atletica Quimsa,52,0.067,5.3,6.1,1.16,1.8,2.4,4.2,0.575,0.575,0.062,0.215,0.196,0.593
12,Instituto Atletico Central Cordoba,47,0.103,8.0,9.3,1.156,2.7,3.8,6.5,0.583,0.583,0.061,0.175,0.156,0.581
13,Club Deportivo Libertad,64,0.082,6.8,7.8,1.155,2.3,3.2,5.5,0.586,0.586,0.083,0.144,0.134,0.572
14,Centro Juventud Sionista,55,0.065,5.3,6.1,1.148,1.5,2.5,4.0,0.617,0.617,0.117,0.172,0.155,0.574
15,Boca Juniors,52,0.089,7.1,8.1,1.147,2.3,3.3,5.6,0.588,0.588,0.095,0.177,0.163,0.576
16,Peñarol Mar del Plata,57,0.083,6.9,7.8,1.141,2.3,3.1,5.4,0.578,0.578,0.077,0.187,0.169,0.578
17,Club Ciclista Olimpico,59,0.07,5.8,6.7,1.139,2.0,2.7,4.7,0.578,0.578,0.064,0.174,0.145,0.577
18,La Union,60,0.094,7.7,8.8,1.136,2.6,3.7,6.3,0.583,0.583,0.084,0.147,0.14,0.571
19,San Lorenzo de Almagro,69,0.084,7.0,7.9,1.126,2.2,3.2,5.4,0.59,0.59,0.103,0.171,0.167,0.566
20,Club Estudiantes Concordia,45,0.084,7.1,7.4,1.034,2.7,3.2,5.9,0.538,0.538,0.084,0.134,0.109,0.519
