#,Team,GP,% Time,Poss / Game,Points,PPP,FGm,FGM,FGA,FG%,aFG%,%TO,%FT,%SF,%Score
1,Club de Regatas Corrientes,57,0.146,11.7,10.8,0.926,4.7,3.6,8.4,0.437,0.515,0.191,0.117,0.083,0.407
2,Asociación Deportiva Atenas,55,0.129,10.2,9.3,0.908,4.9,2.9,7.8,0.377,0.47,0.133,0.123,0.099,0.385
3,Quilmes de Mar del Plata,52,0.168,13.9,12.6,0.908,5.8,4.1,9.8,0.414,0.475,0.158,0.158,0.133,0.416
4,Gimnasia y Esgrima Comodoro Rivadavia,57,0.151,11.8,10.3,0.872,4.8,3.8,8.6,0.442,0.51,0.199,0.092,0.055,0.394
5,Club Ciclista Olimpico,59,0.146,12.2,10.5,0.865,5.1,3.7,8.7,0.42,0.482,0.184,0.113,0.056,0.398
6,Club Deportivo Libertad,64,0.175,14.4,12.4,0.863,6.3,4.4,10.7,0.413,0.479,0.169,0.108,0.072,0.39
7,Obras Basket,59,0.152,12.8,10.9,0.848,5.6,3.9,9.4,0.411,0.473,0.18,0.097,0.065,0.385
8,Club Atlético Lanús,57,0.178,14.2,11.9,0.841,6.1,4.4,10.4,0.418,0.484,0.176,0.106,0.07,0.382
9,Asociacion Atletica Quimsa,52,0.118,9.3,7.7,0.828,4.6,2.8,7.3,0.378,0.433,0.129,0.104,0.071,0.373
10,Boca Juniors,52,0.111,8.8,7.3,0.828,3.9,3.0,6.9,0.437,0.465,0.159,0.072,0.043,0.402
11,Centro Juventud Sionista,55,0.165,13.5,11.0,0.818,6.2,4.0,10.2,0.395,0.436,0.163,0.125,0.111,0.375
12,Peñarol Mar del Plata,57,0.151,12.5,10.1,0.806,5.2,3.4,8.7,0.397,0.474,0.215,0.106,0.056,0.364
13,San Lorenzo de Almagro,69,0.145,12.1,9.5,0.787,5.7,3.6,9.2,0.389,0.451,0.184,0.065,0.05,0.346
14,Ferrocarril Oeste,55,0.121,9.8,7.6,0.774,4.3,2.6,7.0,0.376,0.427,0.189,0.117,0.072,0.36
15,Club Atletico Argentino,57,0.156,12.5,9.7,0.772,6.1,3.3,9.4,0.351,0.414,0.172,0.098,0.067,0.343
16,Club San Martin,49,0.137,11.8,8.9,0.755,5.3,3.0,8.4,0.363,0.427,0.209,0.097,0.067,0.337
17,La Union,60,0.111,9.1,6.6,0.731,3.9,2.3,6.2,0.372,0.447,0.241,0.085,0.068,0.32
18,Weber Bahia,68,0.118,9.9,6.8,0.691,4.6,2.6,7.2,0.357,0.403,0.201,0.087,0.06,0.324
19,Instituto Atletico Central Cordoba,47,0.121,9.4,6.4,0.686,3.9,2.3,6.2,0.368,0.414,0.264,0.1,0.066,0.314
20,Club Estudiantes Concordia,45,0.163,13.9,9.3,0.671,6.6,3.3,10.0,0.333,0.377,0.215,0.087,0.063,0.306
