#,Team,GP,% Time,Poss / Game,Points,PPP,FGm,FGM,FGA,FG%,aFG%,%TO,%FT,%SF,%Score
1,Boca Juniors,52,0.041,3.3,4.0,1.205,1.0,1.6,2.6,0.609,0.65,0.129,0.146,0.135,0.561
2,Peñarol Mar del Plata,57,0.062,5.1,6.1,1.185,1.7,2.2,3.9,0.564,0.609,0.092,0.178,0.158,0.572
3,Club Atlético Lanús,57,0.061,4.8,5.7,1.178,1.6,2.2,3.8,0.572,0.623,0.105,0.149,0.127,0.554
4,Club Atletico Argentino,57,0.052,4.2,4.8,1.156,1.3,2.0,3.3,0.608,0.632,0.127,0.101,0.089,0.561
5,Asociacion Atletica Quimsa,52,0.034,2.7,3.0,1.145,1.0,1.1,2.2,0.522,0.553,0.043,0.181,0.167,0.558
6,Quilmes de Mar del Plata,52,0.039,3.3,3.7,1.142,1.0,1.4,2.4,0.579,0.599,0.101,0.201,0.166,0.574
7,Gimnasia y Esgrima Comodoro Rivadavia,57,0.053,4.1,4.7,1.136,1.3,1.8,3.2,0.58,0.605,0.097,0.169,0.136,0.564
8,Instituto Atletico Central Cordoba,47,0.045,3.5,3.9,1.128,1.1,1.5,2.6,0.574,0.582,0.104,0.213,0.213,0.567
9,Club San Martin,49,0.047,4.0,4.5,1.121,1.6,2.0,3.6,0.554,0.571,0.061,0.121,0.111,0.535
10,Club Deportivo Libertad,64,0.045,3.7,4.1,1.114,1.3,1.6,2.9,0.538,0.594,0.114,0.114,0.105,0.519
11,Obras Basket,59,0.048,4.0,4.5,1.11,1.4,1.8,3.2,0.567,0.583,0.093,0.186,0.165,0.536
12,Asociación Deportiva Atenas,55,0.046,3.7,4.0,1.099,1.1,1.6,2.7,0.603,0.63,0.153,0.144,0.129,0.554
13,Centro Juventud Sionista,55,0.035,2.8,3.1,1.09,1.2,1.1,2.3,0.492,0.555,0.09,0.16,0.154,0.494
14,La Union,60,0.047,3.9,4.2,1.09,1.5,1.7,3.2,0.534,0.565,0.103,0.124,0.116,0.506
15,Weber Bahia,68,0.027,2.3,2.5,1.084,0.9,1.0,1.8,0.52,0.552,0.084,0.136,0.123,0.519
16,Club Estudiantes Concordia,45,0.055,4.7,5.0,1.057,1.9,2.0,4.0,0.514,0.539,0.075,0.142,0.132,0.505
17,Club Ciclista Olimpico,59,0.05,4.2,4.4,1.04,1.8,1.7,3.5,0.473,0.529,0.072,0.133,0.116,0.47
18,Club de Regatas Corrientes,57,0.059,4.7,4.9,1.034,1.9,1.9,3.8,0.5,0.554,0.082,0.149,0.131,0.493
19,San Lorenzo de Almagro,69,0.056,4.7,4.8,1.025,1.6,2.0,3.6,0.565,0.577,0.118,0.158,0.139,0.517
20,Ferrocarril Oeste,55,0.049,3.9,3.9,0.986,1.4,1.5,2.9,0.513,0.535,0.147,0.161,0.152,0.484
