#,Team,GP,% Time,Poss / Game,Points,PPP,FGm,FGM,FGA,FG%,aFG%,%TO,%FT,%SF,%Score
1,Club de Regatas Corrientes,40,0.025,2.0,2.3,1.139,0.7,0.7,1.4,0.491,0.596,0.152,0.165,0.152,0.481
2,Club Ciclista Olimpico,43,0.017,1.4,1.6,1.081,0.5,0.5,1.0,0.489,0.622,0.161,0.113,0.081,0.468
3,Instituto Atletico Central Cordoba,49,0.023,2.0,2.1,1.073,0.9,0.8,1.7,0.452,0.554,0.073,0.063,0.052,0.448
4,Quilmes de Mar del Plata,36,0.034,2.9,2.9,1.01,1.3,1.0,2.3,0.422,0.524,0.125,0.106,0.077,0.413
5,Club Estudiantes Concordia,42,0.035,3.0,2.7,0.927,1.5,1.0,2.5,0.404,0.529,0.137,0.032,0.032,0.363
6,Club Comunicaciones Corrientes,36,0.031,2.6,2.4,0.926,1.2,0.8,2.0,0.389,0.493,0.126,0.137,0.105,0.4
7,Weber Bahia,40,0.03,2.4,2.2,0.918,1.1,0.7,1.8,0.403,0.486,0.144,0.144,0.134,0.412
8,Asociación Deportiva Atenas,49,0.027,2.2,2.0,0.909,1.2,0.7,1.9,0.363,0.489,0.136,0.064,0.055,0.336
9,Gimnasia y Esgrima Comodoro Rivadavia,46,0.045,3.6,3.2,0.898,1.7,1.1,2.8,0.406,0.5,0.157,0.084,0.054,0.38
10,Peñarol Mar del Plata,42,0.027,2.3,2.0,0.874,1.2,0.8,2.0,0.39,0.47,0.084,0.053,0.021,0.379
11,Asociacion Atletica Quimsa,43,0.018,1.5,1.3,0.857,0.7,0.4,1.0,0.364,0.443,0.175,0.143,0.079,0.381
12,San Lorenzo de Almagro,58,0.015,1.3,1.1,0.849,0.6,0.4,0.9,0.389,0.519,0.233,0.082,0.068,0.315
13,Club San Martin,55,0.02,1.6,1.3,0.83,0.9,0.5,1.3,0.356,0.404,0.091,0.102,0.08,0.375
14,Club Atletico Argentino,42,0.017,1.4,1.1,0.828,0.7,0.4,1.1,0.378,0.433,0.138,0.103,0.103,0.379
15,Salta Basket,43,0.028,2.2,1.7,0.798,1.2,0.6,1.7,0.32,0.38,0.106,0.096,0.064,0.351
16,Hispano Americano Rio Gallegos,41,0.02,1.7,1.3,0.786,0.7,0.4,1.2,0.375,0.438,0.243,0.114,0.1,0.329
17,Ferrocarril Oeste,43,0.024,1.9,1.5,0.783,1.1,0.6,1.7,0.361,0.41,0.096,0.048,0.024,0.349
18,Obras Basket,45,0.025,2.2,1.5,0.68,1.1,0.5,1.6,0.3,0.35,0.19,0.11,0.08,0.32
19,Boca Juniors,40,0.021,1.8,1.1,0.643,1.0,0.4,1.4,0.304,0.366,0.157,0.043,0.029,0.286
20,La Union,47,0.011,0.9,0.6,0.619,0.4,0.2,0.6,0.286,0.393,0.286,0.071,0.071,0.238
