#,Team,GP,% Time,Poss / Game,Points,PPP,FGm,FGM,FGA,FG%,aFG%,%TO,%FT,%SF,%Score
1,Asociación Deportiva Atenas,49,1,83.8,84.5,1.008,33.3,28.8,62.1,0.464,0.545,0.146,0.14,0.102,0.448
2,Instituto Atletico Central Cordoba,49,1,83.4,83.6,1.001,33.7,29.4,63.1,0.466,0.543,0.141,0.124,0.091,0.449
3,Quilmes de Mar del Plata,36,1,86.1,85.8,0.996,36.3,31.0,67.3,0.46,0.541,0.129,0.114,0.08,0.445
4,Ferrocarril Oeste,43,1,80.5,79.3,0.986,31.3,29.6,60.9,0.486,0.544,0.15,0.118,0.083,0.454
5,Asociacion Atletica Quimsa,43,1,80.5,78.8,0.979,32.9,28.5,61.4,0.464,0.533,0.139,0.124,0.084,0.446
6,Club San Martin,55,1,81.6,79.7,0.977,33.3,29.3,62.6,0.468,0.526,0.133,0.128,0.092,0.452
7,San Lorenzo de Almagro,58,1,84.7,82.7,0.976,33.8,29.9,63.7,0.469,0.533,0.145,0.135,0.107,0.45
8,Gimnasia y Esgrima Comodoro Rivadavia,46,1,80.9,78.8,0.974,33.0,28.1,61.1,0.46,0.532,0.148,0.126,0.093,0.439
9,Hispano Americano Rio Gallegos,41,1,83.6,80.9,0.968,35.1,27.8,62.9,0.441,0.507,0.133,0.139,0.098,0.44
10,Club de Regatas Corrientes,40,1,80.5,77.6,0.964,32.8,28.2,61.0,0.463,0.53,0.143,0.123,0.091,0.442
11,Peñarol Mar del Plata,42,1,83.6,80.4,0.961,34.6,28.8,63.4,0.455,0.519,0.125,0.14,0.098,0.447
12,Club Estudiantes Concordia,42,1,83.3,79.5,0.955,32.9,28.3,61.2,0.462,0.528,0.152,0.143,0.103,0.44
13,Obras Basket,45,1,88.8,84.1,0.948,35.7,29.9,65.6,0.456,0.503,0.141,0.149,0.113,0.449
14,Salta Basket,43,1,79.1,74.2,0.938,33.5,25.8,59.4,0.435,0.502,0.141,0.128,0.088,0.428
15,Club Ciclista Olimpico,43,1,86.1,80.1,0.931,34.6,29.2,63.8,0.458,0.516,0.15,0.139,0.104,0.435
16,La Union,47,1,82.9,77.1,0.931,34.4,27.3,61.7,0.442,0.501,0.138,0.139,0.103,0.435
17,Weber Bahia,40,1,80.6,74.4,0.923,33.2,27.7,60.8,0.455,0.513,0.154,0.111,0.08,0.428
18,Club Comunicaciones Corrientes,36,1,84.9,78.3,0.922,34.9,28.8,63.7,0.452,0.504,0.151,0.124,0.089,0.43
19,Club Atletico Argentino,42,1,82.3,75.4,0.916,35.0,27.8,62.7,0.443,0.494,0.135,0.126,0.091,0.429
20,Boca Juniors,40,1,82.6,74.9,0.907,35.1,27.3,62.3,0.437,0.49,0.145,0.123,0.089,0.423
