#,Team,GP,% Time,Poss / Game,Points,PPP,FGm,FGM,FGA,FG%,aFG%,%TO,%FT,%SF,%Score
1,Peñarol Mar del Plata,42,0.186,15.6,14.8,0.948,6.5,5.3,11.9,0.45,0.524,0.153,0.096,0.075,0.427
2,Asociación Deportiva Atenas,49,0.18,15.1,14.0,0.923,6.6,4.5,11.1,0.405,0.502,0.175,0.113,0.076,0.386
3,Ferrocarril Oeste,43,0.181,14.6,13.3,0.909,5.6,4.7,10.3,0.459,0.523,0.196,0.116,0.085,0.418
4,Quilmes de Mar del Plata,36,0.212,18.2,15.9,0.873,8.3,5.7,14.0,0.406,0.473,0.155,0.096,0.069,0.386
5,Salta Basket,43,0.184,14.5,12.2,0.837,6.5,3.8,10.3,0.37,0.455,0.187,0.117,0.077,0.365
6,Instituto Atletico Central Cordoba,49,0.186,15.5,12.9,0.834,6.7,4.4,11.1,0.4,0.452,0.186,0.118,0.097,0.382
7,Asociacion Atletica Quimsa,43,0.167,13.4,11.1,0.827,6.0,3.7,9.6,0.382,0.448,0.17,0.125,0.078,0.38
8,Club San Martin,55,0.143,11.7,9.7,0.827,5.2,3.7,8.9,0.412,0.461,0.173,0.087,0.065,0.375
9,La Union,47,0.149,12.3,10.0,0.812,5.7,3.4,9.1,0.371,0.431,0.162,0.117,0.088,0.37
10,Obras Basket,45,0.153,13.6,11.0,0.812,6.1,3.6,9.7,0.374,0.431,0.18,0.137,0.108,0.368
11,Gimnasia y Esgrima Comodoro Rivadavia,46,0.141,11.4,9.3,0.81,4.7,3.2,7.9,0.401,0.47,0.219,0.11,0.091,0.365
12,Weber Bahia,40,0.168,13.6,10.8,0.796,5.4,4.0,9.4,0.424,0.469,0.219,0.105,0.072,0.376
13,San Lorenzo de Almagro,58,0.173,14.6,11.6,0.794,7.2,4.3,11.5,0.376,0.438,0.152,0.084,0.068,0.357
14,Club Atletico Argentino,42,0.215,17.7,13.9,0.785,7.9,5.3,13.2,0.403,0.434,0.161,0.12,0.089,0.383
15,Club de Regatas Corrientes,40,0.198,15.9,12.5,0.785,7.2,4.3,11.5,0.371,0.438,0.184,0.111,0.077,0.356
16,Boca Juniors,40,0.19,15.7,12.3,0.784,7.1,4.3,11.3,0.375,0.425,0.182,0.109,0.08,0.361
17,Hispano Americano Rio Gallegos,41,0.136,11.3,8.9,0.783,4.7,2.9,7.5,0.382,0.426,0.219,0.131,0.088,0.37
18,Club Estudiantes Concordia,42,0.124,10.3,7.9,0.767,4.9,2.7,7.6,0.355,0.42,0.173,0.109,0.072,0.344
19,Club Ciclista Olimpico,43,0.175,15.0,11.1,0.737,6.3,3.9,10.2,0.383,0.443,0.241,0.1,0.066,0.334
20,Club Comunicaciones Corrientes,36,0.122,10.4,7.3,0.706,4.7,2.8,7.5,0.368,0.424,0.222,0.067,0.037,0.326
