#,Team,GP,% Time,Poss / Game,Points,PPP,FGm,FGM,FGA,FG%,aFG%,%TO,%FT,%SF,%Score
1,Gimnasia y Esgrima Comodoro Rivadavia,46,0.039,3.2,2.3,0.714,1.6,0.7,2.3,0.306,0.343,0.109,0.163,0.116,0.374
2,Asociacion Atletica Quimsa,43,0.048,3.9,3.0,0.777,1.8,1.0,2.9,0.358,0.394,0.145,0.151,0.127,0.38
3,Club Ciclista Olimpico,43,0.043,3.7,2.9,0.786,2.0,1.1,3.1,0.353,0.398,0.088,0.094,0.082,0.358
4,Club Atletico Argentino,42,0.049,4.1,3.3,0.819,2.0,1.2,3.2,0.382,0.43,0.123,0.111,0.094,0.368
5,Boca Juniors,40,0.053,4.4,3.6,0.823,2.1,1.3,3.4,0.388,0.425,0.131,0.12,0.109,0.383
6,Peñarol Mar del Plata,42,0.05,4.1,3.5,0.833,2.1,1.2,3.3,0.355,0.413,0.098,0.144,0.132,0.374
7,San Lorenzo de Almagro,58,0.063,5.3,4.5,0.841,2.9,1.6,4.5,0.347,0.403,0.065,0.113,0.094,0.382
8,Asociación Deportiva Atenas,49,0.051,4.3,3.7,0.856,2.1,1.2,3.3,0.362,0.408,0.086,0.158,0.134,0.407
9,La Union,47,0.037,3.0,2.6,0.859,1.3,0.9,2.2,0.419,0.476,0.162,0.12,0.106,0.401
10,Club San Martin,55,0.048,4.0,3.5,0.868,1.9,1.2,3.1,0.4,0.441,0.105,0.15,0.132,0.427
11,Club de Regatas Corrientes,40,0.045,3.7,3.2,0.878,1.9,1.3,3.1,0.408,0.464,0.088,0.082,0.075,0.395
12,Instituto Atletico Central Cordoba,49,0.066,5.4,4.8,0.883,2.7,1.7,4.3,0.382,0.448,0.102,0.128,0.113,0.398
13,Weber Bahia,40,0.048,3.9,3.5,0.885,1.8,1.2,3.0,0.387,0.45,0.122,0.141,0.122,0.404
14,Salta Basket,43,0.05,3.9,3.5,0.888,1.8,1.2,3.0,0.4,0.446,0.124,0.154,0.124,0.408
15,Club Estudiantes Concordia,42,0.047,3.9,3.5,0.89,1.7,1.3,3.0,0.425,0.48,0.141,0.092,0.074,0.405
16,Hispano Americano Rio Gallegos,41,0.052,4.3,3.9,0.893,2.3,1.2,3.5,0.35,0.402,0.062,0.153,0.113,0.412
17,Club Comunicaciones Corrientes,36,0.031,2.6,2.4,0.915,1.1,0.8,1.8,0.424,0.477,0.17,0.17,0.106,0.426
18,Quilmes de Mar del Plata,36,0.043,3.7,3.5,0.955,1.7,1.2,2.9,0.413,0.471,0.09,0.165,0.12,0.451
19,Obras Basket,45,0.039,3.4,3.2,0.961,1.7,1.1,2.8,0.387,0.431,0.053,0.151,0.132,0.447
20,Ferrocarril Oeste,43,0.043,3.6,3.6,1.007,1.5,1.3,2.8,0.479,0.525,0.105,0.137,0.131,0.477
