#,Team,GP,% Time,Poss / Game,Points,PPP,FGm,FGM,FGA,FG%,aFG%,%TO,%FT,%SF,%Score
1,San Lorenzo de Almagro,58,1,84.3,75.0,0.89,38.9,27.2,66.1,0.412,0.469,0.124,0.112,0.088,0.408
2,Club San Martin,55,1,83.6,75.1,0.898,35.9,27.2,63.0,0.431,0.491,0.15,0.122,0.093,0.413
3,La Union,47,1,82.6,75.4,0.912,35.6,26.9,62.5,0.431,0.494,0.146,0.124,0.092,0.417
4,Asociacion Atletica Quimsa,43,1,81.2,75.5,0.93,34.1,26.9,61.0,0.441,0.502,0.144,0.129,0.096,0.429
5,Club Atletico Argentino,42,1,82.9,77.3,0.932,33.5,28.6,62.1,0.46,0.516,0.159,0.119,0.089,0.429
6,Boca Juniors,40,1,82.6,77.0,0.932,35.4,27.7,63.0,0.439,0.496,0.131,0.13,0.095,0.432
7,Gimnasia y Esgrima Comodoro Rivadavia,46,1,82.0,77.3,0.943,33.7,27.9,61.5,0.453,0.51,0.132,0.138,0.097,0.446
8,Weber Bahia,40,1,80.9,77.2,0.954,32.4,26.8,59.2,0.453,0.521,0.154,0.139,0.106,0.438
9,Obras Basket,45,1,87.4,83.6,0.956,34.5,29.3,63.8,0.459,0.523,0.155,0.142,0.096,0.444
10,Instituto Atletico Central Cordoba,49,1,82.4,79.5,0.965,34.0,27.8,61.8,0.449,0.52,0.141,0.133,0.096,0.44
11,Club Ciclista Olimpico,43,1,85.3,82.4,0.966,36.4,30.3,66.7,0.454,0.516,0.125,0.116,0.088,0.44
12,Asociación Deportiva Atenas,49,1,83.7,81.7,0.976,34.9,29.8,64.7,0.46,0.517,0.117,0.131,0.095,0.456
13,Club Comunicaciones Corrientes,36,1,83.8,81.8,0.977,32.0,30.7,62.7,0.489,0.551,0.159,0.121,0.083,0.45
14,Ferrocarril Oeste,43,1,82.0,80.3,0.979,32.0,28.5,60.6,0.471,0.54,0.153,0.138,0.097,0.448
15,Club Estudiantes Concordia,42,1,82.3,81.2,0.987,32.7,28.8,61.5,0.468,0.545,0.149,0.125,0.087,0.446
16,Salta Basket,43,1,79.2,78.9,0.996,31.5,28.0,59.5,0.471,0.544,0.144,0.138,0.101,0.451
17,Club de Regatas Corrientes,40,1,81.5,81.3,0.998,33.0,30.7,63.7,0.482,0.547,0.134,0.107,0.084,0.453
18,Peñarol Mar del Plata,42,1,82.5,83.0,1.006,31.7,29.0,60.7,0.478,0.536,0.136,0.159,0.115,0.471
19,Quilmes de Mar del Plata,36,1,86.4,88.9,1.028,31.9,31.7,63.6,0.498,0.571,0.152,0.141,0.096,0.471
20,Hispano Americano Rio Gallegos,41,1,82.7,85.0,1.028,31.1,30.0,61.1,0.491,0.56,0.147,0.147,0.101,0.469
