#,Team,GP,% Time,Poss / Game,Points,PPP,FGm,FGM,FGA,FG%,aFG%,%TO,%FT,%SF,%Score
1,Obras Basket,45,0.138,12.1,12.9,1.066,4.0,4.7,8.6,0.54,0.594,0.155,0.166,0.123,0.508
2,Club San Martin,55,0.129,10.8,11.7,1.084,3.5,4.6,8.2,0.567,0.626,0.16,0.121,0.103,0.499
3,La Union,47,0.134,11.1,12.0,1.087,4.1,4.5,8.6,0.52,0.575,0.119,0.127,0.1,0.502
4,Weber Bahia,40,0.126,10.2,11.4,1.118,2.8,4.0,6.8,0.588,0.649,0.192,0.167,0.131,0.52
5,Club Estudiantes Concordia,42,0.156,12.8,14.4,1.125,3.9,4.9,8.8,0.557,0.633,0.169,0.188,0.141,0.52
6,Peñarol Mar del Plata,42,0.145,12.0,13.6,1.137,3.7,5.1,8.8,0.583,0.637,0.147,0.155,0.133,0.541
7,San Lorenzo de Almagro,58,0.136,11.5,13.1,1.138,3.9,5.0,8.9,0.562,0.622,0.122,0.135,0.11,0.528
8,Salta Basket,43,0.151,12.0,13.6,1.138,3.8,4.9,8.7,0.565,0.609,0.13,0.183,0.142,0.543
9,Instituto Atletico Central Cordoba,49,0.142,11.7,13.4,1.147,3.7,4.8,8.5,0.562,0.629,0.141,0.168,0.124,0.536
10,Hispano Americano Rio Gallegos,41,0.16,13.3,15.2,1.147,3.6,5.5,9.1,0.603,0.656,0.175,0.188,0.147,0.539
11,Club de Regatas Corrientes,40,0.16,13.0,14.9,1.148,4.0,5.8,9.8,0.593,0.636,0.138,0.137,0.112,0.546
12,Asociación Deportiva Atenas,49,0.134,11.2,12.9,1.149,3.3,4.9,8.2,0.595,0.643,0.135,0.158,0.135,0.557
13,Boca Juniors,40,0.115,9.5,11.0,1.153,3.1,4.1,7.2,0.57,0.636,0.134,0.15,0.129,0.534
14,Asociacion Atletica Quimsa,43,0.133,10.8,12.5,1.153,3.3,4.6,7.9,0.581,0.639,0.148,0.163,0.129,0.538
15,Club Ciclista Olimpico,43,0.149,12.7,14.9,1.172,4.1,6.0,10.0,0.593,0.645,0.123,0.117,0.095,0.544
16,Ferrocarril Oeste,43,0.135,11.1,13.1,1.185,3.2,4.8,8.0,0.602,0.667,0.155,0.155,0.12,0.546
17,Club Comunicaciones Corrientes,36,0.143,12.0,14.3,1.19,3.5,5.5,9.0,0.613,0.672,0.15,0.139,0.09,0.556
18,Club Atletico Argentino,42,0.142,11.8,14.0,1.19,3.4,5.0,8.5,0.594,0.651,0.143,0.181,0.151,0.56
19,Gimnasia y Esgrima Comodoro Rivadavia,46,0.147,12.1,14.7,1.216,3.7,5.7,9.3,0.609,0.672,0.117,0.137,0.099,0.568
20,Quilmes de Mar del Plata,36,0.148,12.8,15.9,1.239,3.3,5.8,9.1,0.641,0.71,0.141,0.182,0.128,0.588
