#,Team,GP,% Time,Poss / Game,Points,PPP,FGm,FGM,FGA,FG%,aFG%,%TO,%FT,%SF,%Score
1,Club Deportivo Libertad,64,0.025,2.1,1.5,0.701,1.2,0.5,1.7,0.291,0.368,0.127,0.06,0.06,0.284
2,Quilmes de Mar del Plata,52,0.024,2.0,1.4,0.708,1.1,0.5,1.6,0.293,0.335,0.123,0.123,0.085,0.321
3,Obras Basket,59,0.026,2.2,1.6,0.713,1.3,0.6,1.8,0.315,0.384,0.124,0.047,0.047,0.302
4,Ferrocarril Oeste,55,0.028,2.2,1.6,0.724,1.3,0.6,1.9,0.32,0.379,0.122,0.057,0.049,0.309
5,Gimnasia y Esgrima Comodoro Rivadavia,57,0.035,2.7,2.1,0.763,1.4,0.8,2.2,0.36,0.424,0.154,0.064,0.038,0.333
6,Boca Juniors,52,0.025,2.0,1.5,0.784,1.1,0.6,1.7,0.337,0.427,0.098,0.029,0.029,0.324
7,San Lorenzo de Almagro,69,0.027,2.3,1.8,0.795,1.1,0.6,1.7,0.347,0.432,0.147,0.109,0.032,0.34
8,Instituto Atletico Central Cordoba,47,0.023,1.8,1.4,0.8,1.0,0.4,1.5,0.304,0.391,0.106,0.094,0.059,0.329
9,La Union,60,0.024,2.0,1.7,0.826,1.0,0.6,1.5,0.374,0.484,0.19,0.074,0.058,0.331
10,Club San Martin,49,0.02,1.7,1.4,0.829,0.8,0.5,1.3,0.381,0.484,0.171,0.061,0.061,0.341
11,Peñarol Mar del Plata,57,0.028,2.3,1.9,0.835,1.1,0.6,1.8,0.363,0.441,0.128,0.113,0.068,0.368
12,Club Atletico Argentino,57,0.027,2.2,1.9,0.863,1.2,0.6,1.9,0.346,0.425,0.081,0.065,0.056,0.355
13,Club de Regatas Corrientes,57,0.026,2.1,1.8,0.873,0.9,0.6,1.6,0.393,0.472,0.161,0.093,0.068,0.381
14,Asociacion Atletica Quimsa,52,0.028,2.2,1.9,0.878,1.2,0.7,1.8,0.354,0.422,0.061,0.113,0.104,0.391
15,Club Ciclista Olimpico,59,0.024,2.0,1.7,0.88,1.0,0.6,1.6,0.389,0.489,0.145,0.068,0.043,0.35
16,Weber Bahia,68,0.027,2.2,2.0,0.914,1.1,0.6,1.8,0.364,0.475,0.099,0.112,0.066,0.395
17,Asociación Deportiva Atenas,55,0.024,1.9,1.9,0.962,0.9,0.6,1.5,0.422,0.536,0.151,0.085,0.057,0.396
18,Club Estudiantes Concordia,45,0.034,2.8,2.7,0.968,1.3,0.9,2.2,0.398,0.51,0.119,0.111,0.071,0.413
19,Club Atlético Lanús,57,0.023,1.9,2.1,1.121,0.8,0.8,1.6,0.473,0.577,0.084,0.084,0.075,0.467
20,Centro Juventud Sionista,55,0.023,1.8,2.1,1.13,0.7,0.7,1.3,0.486,0.608,0.14,0.14,0.11,0.48
