#,Team,GP,% Time,Poss / Game,Points,PPP,FGm,FGM,FGA,FG%,aFG%,%TO,%FT,%SF,%Score
1,Club Estudiantes Concordia,45,0.179,5.0,3.2,0.628,3.5,1.6,5.0,0.31,0.31,0,0.009,0.009,0.31
2,Instituto Atletico Central Cordoba,47,0.144,3.9,2.6,0.665,2.6,1.3,3.9,0.33,0.33,0,0.005,0.005,0.33
3,Club Ciclista Olimpico,59,0.156,4.5,3.0,0.665,3.0,1.5,4.5,0.331,0.331,0,0.004,0.004,0.331
4,San Lorenzo de Almagro,69,0.17,4.9,3.5,0.701,3.2,1.7,4.9,0.349,0.349,0,0.003,0.003,0.349
5,Club Deportivo Libertad,64,0.157,4.7,3.3,0.702,3.1,1.6,4.7,0.348,0.348,0,0.01,0.01,0.348
6,Weber Bahia,68,0.198,6.0,4.4,0.728,3.8,2.2,6.0,0.363,0.363,0,0.002,0.002,0.363
7,Quilmes de Mar del Plata,52,0.188,5.1,3.8,0.758,3.2,1.9,5.1,0.379,0.379,0,0.004,0.004,0.379
8,Club de Regatas Corrientes,57,0.174,4.7,3.6,0.762,2.9,1.8,4.7,0.379,0.379,0,0.004,0.004,0.379
9,Centro Juventud Sionista,55,0.152,4.1,3.2,0.771,2.5,1.6,4.1,0.383,0.383,0,0.004,0.004,0.383
10,Club Atlético Lanús,57,0.176,4.9,3.8,0.776,3.0,1.9,4.9,0.386,0.386,0,0.007,0.007,0.386
11,Obras Basket,59,0.17,4.9,3.8,0.78,3.0,1.9,4.9,0.388,0.388,0,0.003,0.003,0.388
12,Ferrocarril Oeste,55,0.162,4.5,3.5,0.78,2.7,1.7,4.5,0.39,0.39,0,0.0,0.0,0.39
13,Club Atletico Argentino,57,0.162,4.6,3.6,0.781,2.8,1.8,4.6,0.388,0.388,0,0.004,0.004,0.388
14,Peñarol Mar del Plata,57,0.147,4.0,3.2,0.797,2.4,1.6,4.0,0.396,0.396,0,0.009,0.009,0.396
15,La Union,60,0.165,4.9,4.0,0.812,2.9,2.0,4.9,0.406,0.406,0,0.003,0.003,0.406
16,Club San Martin,49,0.13,3.8,3.1,0.812,2.3,1.5,3.8,0.403,0.403,0,0.005,0.005,0.403
17,Boca Juniors,52,0.159,4.7,3.8,0.823,2.8,1.9,4.7,0.412,0.412,0,0.0,0.0,0.412
18,Asociacion Atletica Quimsa,52,0.199,5.5,4.5,0.828,3.2,2.3,5.5,0.414,0.414,0,0.0,0.0,0.414
19,Asociación Deportiva Atenas,55,0.169,4.5,3.8,0.851,2.6,1.9,4.5,0.423,0.423,0,0.004,0.004,0.423
20,Gimnasia y Esgrima Comodoro Rivadavia,57,0.2,5.6,4.9,0.871,3.2,2.4,5.6,0.429,0.429,0,0.013,0.013,0.429
