#,Team,GP,% Time,Poss / Game,Points,PPP,FGm,FGM,FGA,FG%,aFG%,%TO,%FT,%SF,%Score
1,Peñarol Mar del Plata,57,0.143,12.0,12.1,1.012,4.2,4.4,8.7,0.51,0.559,0.152,0.146,0.085,0.488
2,Club Atletico Argentino,57,0.131,10.5,11.1,1.05,3.3,3.9,7.2,0.542,0.599,0.172,0.158,0.092,0.505
3,San Lorenzo de Almagro,69,0.12,10.0,10.6,1.058,3.4,4.1,7.6,0.547,0.587,0.144,0.136,0.104,0.502
4,Club Deportivo Libertad,64,0.138,11.4,12.1,1.063,4.0,4.5,8.5,0.53,0.579,0.133,0.151,0.103,0.508
5,Club Ciclista Olimpico,59,0.129,10.8,11.6,1.078,3.6,4.5,8.1,0.556,0.598,0.149,0.144,0.105,0.512
6,Instituto Atletico Central Cordoba,47,0.146,11.4,12.6,1.104,3.4,4.6,8.0,0.579,0.619,0.168,0.162,0.121,0.533
7,Weber Bahia,68,0.115,9.4,10.4,1.106,3.0,3.7,6.7,0.553,0.605,0.15,0.178,0.12,0.525
8,Obras Basket,59,0.12,10.2,11.4,1.116,3.2,4.6,7.7,0.589,0.638,0.158,0.121,0.09,0.526
9,Ferrocarril Oeste,55,0.131,10.4,11.7,1.119,3.3,4.7,7.9,0.586,0.638,0.154,0.106,0.077,0.524
10,Club San Martin,49,0.146,12.4,14.0,1.128,3.8,5.2,8.9,0.58,0.629,0.14,0.181,0.123,0.548
11,Club Atlético Lanús,57,0.129,10.6,11.9,1.128,3.4,4.3,7.6,0.559,0.61,0.136,0.177,0.123,0.539
12,La Union,60,0.135,11.3,12.8,1.13,3.7,4.9,8.6,0.568,0.635,0.125,0.137,0.099,0.534
13,Club Estudiantes Concordia,45,0.144,12.0,13.8,1.148,3.8,5.2,9.0,0.582,0.634,0.135,0.153,0.096,0.542
14,Boca Juniors,52,0.126,10.0,11.6,1.16,3.3,4.4,7.7,0.57,0.622,0.123,0.154,0.108,0.541
15,Gimnasia y Esgrima Comodoro Rivadavia,57,0.13,10.3,11.9,1.164,3.0,4.4,7.4,0.593,0.643,0.14,0.178,0.111,0.562
16,Asociación Deportiva Atenas,55,0.137,10.9,12.7,1.165,3.3,4.7,8.0,0.591,0.638,0.113,0.182,0.135,0.572
17,Club de Regatas Corrientes,57,0.126,10.0,11.7,1.168,3.2,4.2,7.5,0.565,0.624,0.114,0.168,0.119,0.552
18,Centro Juventud Sionista,55,0.154,12.2,14.7,1.201,3.5,5.4,8.9,0.61,0.679,0.146,0.155,0.104,0.562
19,Quilmes de Mar del Plata,52,0.148,12.3,14.8,1.205,3.6,5.4,9.0,0.599,0.665,0.128,0.167,0.111,0.569
20,Asociacion Atletica Quimsa,52,0.113,9.0,11.0,1.225,2.9,4.0,6.9,0.584,0.655,0.103,0.161,0.126,0.567
