#,Team,GP,% Time,Poss / Game,Points,PPP,FGm,FGM,FGA,FG%,aFG%,%TO,%FT,%SF,%Score
1,Instituto Atletico Central Cordoba,52,0.122,9.9,6.8,0.686,5.8,2.4,8.2,0.297,0.347,0.092,0.086,0.062,0.314
2,Club Comunicaciones Corrientes,30,0.132,10.7,7.5,0.696,6.6,2.7,9.4,0.292,0.336,0.059,0.084,0.078,0.317
3,San Lorenzo de Almagro,46,0.156,13.1,9.2,0.699,7.6,3.5,11.1,0.315,0.354,0.099,0.076,0.06,0.315
4,Club Ciclista Olimpico,43,0.142,11.0,7.8,0.712,6.2,2.8,9.0,0.313,0.365,0.112,0.078,0.063,0.323
5,Boca Juniors,38,0.138,11.2,8.0,0.717,6.3,2.9,9.3,0.318,0.368,0.108,0.073,0.054,0.323
6,Gimnasia y Esgrima Comodoro Rivadavia,34,0.108,8.7,6.4,0.736,4.9,2.5,7.4,0.339,0.373,0.085,0.081,0.064,0.346
7,Club San Martin,36,0.128,9.9,7.3,0.739,5.6,2.7,8.3,0.327,0.388,0.104,0.07,0.056,0.322
8,Club Estudiantes Concordia,31,0.089,7.4,5.5,0.741,4.2,2.0,6.2,0.319,0.359,0.079,0.105,0.079,0.351
9,Peñarol Mar del Plata,37,0.08,6.6,4.9,0.753,3.8,1.8,5.6,0.314,0.367,0.078,0.078,0.058,0.329
10,Hispano Americano Rio Gallegos,26,0.11,8.8,6.7,0.768,4.7,2.3,7.1,0.332,0.391,0.11,0.114,0.083,0.346
11,Club de Regatas Corrientes,37,0.148,12.5,9.6,0.769,6.9,3.5,10.5,0.339,0.384,0.095,0.089,0.06,0.35
12,Quilmes de Mar del Plata,30,0.09,7.5,5.8,0.77,4.3,2.2,6.4,0.337,0.378,0.08,0.088,0.071,0.354
13,Ferrocarril Oeste,35,0.11,8.3,6.4,0.773,4.5,2.4,6.9,0.35,0.389,0.103,0.076,0.058,0.354
14,Asociación Deportiva Atenas,32,0.101,8.1,6.3,0.777,4.2,2.4,6.6,0.367,0.419,0.127,0.077,0.058,0.358
15,Asociacion Atletica Quimsa,31,0.116,8.8,6.9,0.783,5.0,2.5,7.5,0.339,0.399,0.077,0.081,0.059,0.353
16,Weber Bahia,33,0.135,10.4,8.3,0.801,5.5,3.0,8.5,0.352,0.416,0.114,0.079,0.07,0.348
17,La Union,43,0.113,9.0,7.5,0.827,4.7,2.9,7.6,0.376,0.428,0.098,0.072,0.052,0.376
18,Club Deportivo Libertad,31,0.101,8.2,6.9,0.839,4.5,2.7,7.2,0.372,0.43,0.063,0.082,0.075,0.376
19,Obras Basket,36,0.108,8.6,7.2,0.844,4.5,2.6,7.1,0.371,0.432,0.097,0.091,0.075,0.377
20,Club Atletico Argentino,29,0.068,5.6,5.1,0.913,2.8,2.0,4.8,0.414,0.482,0.081,0.075,0.062,0.398
