#,Team,GP,% Time,Poss / Game,Points,PPP,FGm,FGM,FGA,FG%,aFG%,%TO,%FT,%SF,%Score
1,Weber Bahia,33,0.023,1.8,0.9,0.517,1.1,0.3,1.4,0.222,0.311,0.19,0.034,0.017,0.19
2,Quilmes de Mar del Plata,30,0.023,1.9,1.0,0.534,1.2,0.2,1.5,0.159,0.193,0.138,0.121,0.086,0.224
3,Gimnasia y Esgrima Comodoro Rivadavia,34,0.033,2.7,1.7,0.637,1.5,0.6,2.1,0.301,0.342,0.154,0.066,0.055,0.286
4,Peñarol Mar del Plata,37,0.023,1.9,1.3,0.7,1.0,0.5,1.5,0.315,0.407,0.186,0.043,0.029,0.286
5,Club Ciclista Olimpico,43,0.027,2.1,1.5,0.725,1.1,0.6,1.7,0.333,0.396,0.154,0.066,0.033,0.319
6,Asociacion Atletica Quimsa,31,0.023,1.8,1.3,0.727,1.0,0.5,1.5,0.319,0.362,0.091,0.073,0.055,0.327
7,Ferrocarril Oeste,35,0.033,2.5,1.9,0.75,1.3,0.6,1.9,0.318,0.386,0.148,0.102,0.068,0.33
8,Club San Martin,36,0.026,2.0,1.5,0.753,1.0,0.6,1.6,0.362,0.397,0.151,0.082,0.068,0.342
9,Club Atletico Argentino,29,0.019,1.6,1.2,0.756,0.7,0.4,1.1,0.375,0.438,0.222,0.089,0.044,0.333
10,Club Deportivo Libertad,31,0.029,2.4,1.8,0.767,1.2,0.6,1.8,0.339,0.42,0.137,0.096,0.082,0.342
11,Club Comunicaciones Corrientes,30,0.023,1.9,1.5,0.789,1.0,0.4,1.4,0.31,0.429,0.14,0.123,0.053,0.333
12,Boca Juniors,38,0.029,2.4,1.9,0.789,1.2,0.7,1.9,0.352,0.458,0.178,0.033,0.022,0.311
13,Obras Basket,36,0.024,1.9,1.5,0.794,1.0,0.4,1.5,0.302,0.387,0.118,0.103,0.059,0.338
14,Instituto Atletico Central Cordoba,52,0.03,2.4,2.1,0.887,1.1,0.7,1.8,0.396,0.49,0.153,0.089,0.056,0.371
15,Hispano Americano Rio Gallegos,26,0.029,2.3,2.1,0.932,1.0,0.7,1.8,0.413,0.522,0.136,0.119,0.034,0.39
16,Club de Regatas Corrientes,37,0.02,1.7,1.7,0.969,0.8,0.6,1.4,0.431,0.529,0.156,0.078,0.063,0.391
17,Club Estudiantes Concordia,31,0.028,2.3,2.3,0.972,1.0,0.8,1.8,0.455,0.518,0.167,0.125,0.111,0.417
18,San Lorenzo de Almagro,46,0.039,3.3,3.3,1.0,1.7,1.2,2.9,0.415,0.504,0.06,0.053,0.04,0.413
19,Asociación Deportiva Atenas,32,0.026,2.1,2.2,1.015,0.9,0.7,1.6,0.442,0.529,0.132,0.132,0.103,0.441
20,La Union,43,0.022,1.7,1.8,1.053,0.8,0.7,1.5,0.462,0.554,0.08,0.067,0.053,0.453
