#,Team,GP,% Time,Poss / Game,Points,PPP,FGm,FGM,FGA,FG%,aFG%,%TO,%FT,%SF,%Score
1,Asociacion Atletica Quimsa,31,0.051,3.8,2.8,0.731,2.0,1.0,3.0,0.333,0.387,0.109,0.109,0.084,0.361
2,Obras Basket,36,0.031,2.5,1.9,0.753,1.4,0.7,2.1,0.333,0.387,0.112,0.067,0.056,0.326
3,Weber Bahia,33,0.035,2.7,2.0,0.761,1.3,0.7,2.0,0.364,0.424,0.159,0.091,0.068,0.364
4,Club Ciclista Olimpico,43,0.043,3.4,2.6,0.772,1.8,0.9,2.7,0.331,0.398,0.11,0.09,0.069,0.338
5,Club Comunicaciones Corrientes,30,0.037,3.0,2.4,0.798,1.5,0.9,2.4,0.38,0.423,0.124,0.09,0.079,0.371
6,Club Deportivo Libertad,31,0.046,3.7,3.0,0.8,1.9,1.0,2.9,0.341,0.368,0.096,0.157,0.113,0.374
7,Club San Martin,36,0.049,3.8,3.1,0.816,1.9,1.1,3.0,0.352,0.389,0.081,0.14,0.11,0.382
8,Boca Juniors,38,0.053,4.3,3.6,0.823,2.2,1.2,3.4,0.346,0.408,0.104,0.14,0.091,0.372
9,La Union,43,0.042,3.3,2.7,0.825,1.8,1.0,2.7,0.356,0.398,0.098,0.119,0.119,0.371
10,Club Estudiantes Concordia,31,0.037,3.1,2.6,0.833,1.5,0.9,2.5,0.368,0.408,0.083,0.135,0.094,0.396
11,Instituto Atletico Central Cordoba,52,0.045,3.6,3.0,0.84,1.9,1.1,3.0,0.359,0.41,0.085,0.122,0.106,0.367
12,Club de Regatas Corrientes,37,0.044,3.7,3.2,0.848,1.8,1.1,2.9,0.376,0.427,0.13,0.123,0.109,0.37
13,Hispano Americano Rio Gallegos,26,0.041,3.2,2.8,0.869,1.6,0.9,2.5,0.359,0.43,0.107,0.155,0.107,0.405
14,Ferrocarril Oeste,35,0.044,3.3,2.9,0.88,1.7,1.1,2.7,0.396,0.422,0.085,0.111,0.103,0.419
15,Peñarol Mar del Plata,37,0.036,3.0,2.6,0.883,1.4,0.8,2.2,0.361,0.398,0.108,0.198,0.144,0.396
16,San Lorenzo de Almagro,46,0.04,3.4,3.0,0.897,1.8,1.1,2.8,0.382,0.424,0.071,0.123,0.11,0.406
17,Club Atletico Argentino,29,0.041,3.4,3.1,0.918,1.4,1.1,2.6,0.446,0.493,0.122,0.133,0.092,0.439
18,Quilmes de Mar del Plata,30,0.036,3.0,2.9,0.989,1.4,1.2,2.6,0.449,0.506,0.079,0.101,0.09,0.427
19,Asociación Deportiva Atenas,32,0.041,3.3,3.4,1.028,1.5,1.2,2.7,0.447,0.512,0.085,0.151,0.104,0.472
20,Gimnasia y Esgrima Comodoro Rivadavia,34,0.034,2.7,2.9,1.054,1.1,0.9,2.1,0.443,0.507,0.075,0.204,0.14,0.495
