#,Team,GP,% Time,Poss / Game,Points,PPP,FGm,FGM,FGA,FG%,aFG%,%TO,%FT,%SF,%Score
1,Gimnasia y Esgrima Comodoro Rivadavia,34,0.075,6.1,5.1,0.85,3.2,1.8,5.0,0.357,0.442,0.107,0.078,0.058,0.359
2,Boca Juniors,38,0.054,4.4,3.8,0.861,2.4,1.3,3.7,0.35,0.471,0.114,0.054,0.042,0.337
3,Quilmes de Mar del Plata,30,0.064,5.4,4.7,0.87,2.7,1.6,4.3,0.369,0.462,0.13,0.081,0.062,0.36
4,Instituto Atletico Central Cordoba,52,0.053,4.3,3.7,0.873,2.5,1.3,3.8,0.337,0.434,0.063,0.059,0.036,0.348
5,Peñarol Mar del Plata,37,0.083,6.8,6.0,0.885,4.0,2.3,6.2,0.364,0.45,0.048,0.056,0.048,0.365
6,Club Estudiantes Concordia,31,0.064,5.3,4.8,0.897,2.7,1.5,4.2,0.362,0.465,0.133,0.085,0.048,0.364
7,Obras Basket,36,0.072,5.7,5.1,0.898,3.1,1.7,4.8,0.356,0.457,0.092,0.073,0.068,0.364
8,Club de Regatas Corrientes,37,0.065,5.5,5.0,0.907,3.0,1.8,4.8,0.371,0.497,0.098,0.039,0.02,0.348
9,Asociación Deportiva Atenas,32,0.074,6.0,5.6,0.937,3.3,2.0,5.3,0.38,0.468,0.063,0.068,0.052,0.382
10,San Lorenzo de Almagro,46,0.079,6.7,6.3,0.948,3.7,2.1,5.8,0.362,0.481,0.072,0.062,0.046,0.366
11,Asociacion Atletica Quimsa,31,0.066,5.0,4.7,0.948,2.5,1.5,4.1,0.378,0.48,0.097,0.091,0.071,0.39
12,La Union,43,0.066,5.3,5.0,0.952,2.8,1.8,4.6,0.392,0.495,0.07,0.066,0.044,0.396
13,Ferrocarril Oeste,35,0.07,5.3,5.1,0.962,2.8,1.8,4.6,0.394,0.494,0.07,0.081,0.075,0.403
14,Club Atletico Argentino,29,0.055,4.5,4.3,0.962,2.4,1.6,4.0,0.4,0.5,0.077,0.046,0.046,0.392
15,Club San Martin,36,0.065,5.1,5.1,1.005,2.6,1.6,4.1,0.383,0.51,0.088,0.11,0.082,0.407
16,Hispano Americano Rio Gallegos,26,0.067,5.3,5.5,1.043,2.3,1.9,4.2,0.459,0.573,0.138,0.101,0.08,0.428
17,Weber Bahia,33,0.065,4.9,5.2,1.049,2.5,1.7,4.2,0.4,0.554,0.098,0.061,0.043,0.387
18,Club Deportivo Libertad,31,0.065,5.3,5.6,1.061,2.8,2.0,4.9,0.417,0.54,0.048,0.048,0.036,0.412
19,Club Ciclista Olimpico,43,0.057,4.4,4.7,1.063,2.1,1.7,3.8,0.451,0.585,0.115,0.047,0.047,0.414
20,Club Comunicaciones Corrientes,30,0.062,5.0,5.9,1.187,2.3,2.3,4.6,0.496,0.622,0.06,0.047,0.04,0.473
